hw3/test_run_dir/InstructionFetch_of_Single_Cycle_CPU_should_fetch_instruction/InstructionFetch.vcd
$version Generated by VerilatedVcd $end
$date Fri Dec  1 21:00:55 2023
 $end
$timescale   1ns $end

 $scope module TOP $end
  $var wire  1 + clock $end
  $var wire 32 c io_instruction [31:0] $end
  $var wire 32 [ io_instruction_address [31:0] $end
  $var wire 32 K io_instruction_read_data [31:0] $end
  $var wire  1 S io_instruction_valid $end
  $var wire 32 C io_jump_address_id [31:0] $end
  $var wire  1 ; io_jump_flag_id $end
  $var wire  1 3 reset $end
  $scope module InstructionFetch $end
   $var wire  1 + clock $end
   $var wire 32 c io_instruction [31:0] $end
   $var wire 32 [ io_instruction_address [31:0] $end
   $var wire 32 K io_instruction_read_data [31:0] $end
   $var wire  1 S io_instruction_valid $end
   $var wire 32 C io_jump_address_id [31:0] $end
   $var wire  1 ; io_jump_flag_id $end
   $var wire 32 # pc [31:0] $end
   $var wire  1 3 reset $end
  $upscope $end
 $upscope $end
$enddefinitions $end


#0
b00000000000000000000000000000000 #
0+
13
0;
b00000000000000000000000000000000 C
b00000000000000000000000000000000 K
0S
b00000000000000000000000000000000 [
b00000000000000000000000000010011 c
#1
b00000000000000000001000000000000 #
1+
b00000000000000000001000000000000 [
#2
0+
03
1;
b00000000000000000001000000000000 C
1S
b00000000000000000000000000000000 c
#3
1+
#4
0+
0;
#5
b00000000000000000001000000000100 #
1+
b00000000000000000001000000000100 [
#6
0+
#7
b00000000000000000001000000001000 #
1+
b00000000000000000001000000001000 [
#8
0+
1;
#9
b00000000000000000001000000000000 #
1+
b00000000000000000001000000000000 [
#10
0+
0;
#11
b00000000000000000001000000000100 #
1+
b00000000000000000001000000000100 [
#12
0+
#13
b00000000000000000001000000001000 #
1+
b00000000000000000001000000001000 [
#14
0+
1;
#15
b00000000000000000001000000000000 #
1+
b00000000000000000001000000000000 [
#16
0+
#17
1+
#18
0+
0;
#19
b00000000000000000001000000000100 #
1+
b00000000000000000001000000000100 [
#20
0+
1;
#21
b00000000000000000001000000000000 #
1+
b00000000000000000001000000000000 [
#22
0+
#23
1+
#24
0+
#25
1+
#26
0+
#27
1+
#28
0+
#29
1+
#30
0+
#31
1+
#32
0+
0;
#33
b00000000000000000001000000000100 #
1+
b00000000000000000001000000000100 [
#34
0+
1;
#35
b00000000000000000001000000000000 #
1+
b00000000000000000001000000000000 [
#36
0+
0;
#37
b00000000000000000001000000000100 #
1+
b00000000000000000001000000000100 [
#38
0+
1;
#39
b00000000000000000001000000000000 #
1+
b00000000000000000001000000000000 [
#40
0+
0;
#41
b00000000000000000001000000000100 #
1+
b00000000000000000001000000000100 [
#42
0+
#43
b00000000000000000001000000001000 #
1+
b00000000000000000001000000001000 [
#44
0+
#45
b00000000000000000001000000001100 #
1+
b00000000000000000001000000001100 [
#46
0+
1;
#47
b00000000000000000001000000000000 #
1+
b00000000000000000001000000000000 [
#48
0+
#49
1+
#50
0+
#51
1+
#52
0+
0;
#53
b00000000000000000001000000000100 #
1+
b00000000000000000001000000000100 [
#54
0+
#55
b00000000000000000001000000001000 #
1+
b00000000000000000001000000001000 [
#56
0+
#57
b00000000000000000001000000001100 #
1+
b00000000000000000001000000001100 [
#58
0+
1;
#59
b00000000000000000001000000000000 #
1+
b00000000000000000001000000000000 [
#60
0+
0;
#61
b00000000000000000001000000000100 #
1+
b00000000000000000001000000000100 [
#62
0+
1;
#63
b00000000000000000001000000000000 #
1+
b00000000000000000001000000000000 [
#64
0+
0;
#65
b00000000000000000001000000000100 #
1+
b00000000000000000001000000000100 [
#66
0+
#67
b00000000000000000001000000001000 #
1+
b00000000000000000001000000001000 [
#68
0+
1;
#69
b00000000000000000001000000000000 #
1+
b00000000000000000001000000000000 [
#70
0+
#71
1+
#72
0+
0;
#73
b00000000000000000001000000000100 #
1+
b00000000000000000001000000000100 [
#74
0+
#75
b00000000000000000001000000001000 #
1+
b00000000000000000001000000001000 [
#76
0+
#77
b00000000000000000001000000001100 #
1+
b00000000000000000001000000001100 [
#78
0+
#79
b00000000000000000001000000010000 #
1+
b00000000000000000001000000010000 [
#80
0+
#81
b00000000000000000001000000010100 #
1+
b00000000000000000001000000010100 [
#82
0+
#83
b00000000000000000001000000011000 #
1+
b00000000000000000001000000011000 [
#84
0+
#85
b00000000000000000001000000011100 #
1+
b00000000000000000001000000011100 [
#86
0+
#87
b00000000000000000001000000100000 #
1+
b00000000000000000001000000100000 [
#88
0+
#89
b00000000000000000001000000100100 #
1+
b00000000000000000001000000100100 [
#90
0+
1;
#91
b00000000000000000001000000000000 #
1+
b00000000000000000001000000000000 [
#92
0+
#93
1+
#94
0+
#95
1+
#96
0+
#97
1+
#98
0+
#99
1+
#100
0+
#101
1+
#102
0+
#103
1+
#104
0+
0;
#105
b00000000000000000001000000000100 #
1+
b00000000000000000001000000000100 [
#106
0+
1;
#107
b00000000000000000001000000000000 #
1+
b00000000000000000001000000000000 [
#108
0+
#109
1+
#110
0+
0;
#111
b00000000000000000001000000000100 #
1+
b00000000000000000001000000000100 [
#112
0+
1;
#113
b00000000000000000001000000000000 #
1+
b00000000000000000001000000000000 [
#114
0+
0;
#115
b00000000000000000001000000000100 #
1+
b00000000000000000001000000000100 [
#116
0+
1;
#117
b00000000000000000001000000000000 #
1+
b00000000000000000001000000000000 [
#118
0+
0;
#119
b00000000000000000001000000000100 #
1+
b00000000000000000001000000000100 [
#120
0+
1;
#121
b00000000000000000001000000000000 #
1+
b00000000000000000001000000000000 [
#122
0+
0;
#123
b00000000000000000001000000000100 #
1+
b00000000000000000001000000000100 [
#124
0+
#125
b00000000000000000001000000001000 #
1+
b00000000000000000001000000001000 [
#126
0+
1;
#127
b00000000000000000001000000000000 #
1+
b00000000000000000001000000000000 [
#128
0+
0;
#129
b00000000000000000001000000000100 #
1+
b00000000000000000001000000000100 [
#130
0+
1;
#131
b00000000000000000001000000000000 #
1+
b00000000000000000001000000000000 [
#132
0+
#133
1+
#134
0+
#135
1+
#136
0+
0;
#137
b00000000000000000001000000000100 #
1+
b00000000000000000001000000000100 [
#138
0+
1;
#139
b00000000000000000001000000000000 #
1+
b00000000000000000001000000000000 [
#140
0+
0;
#141
b00000000000000000001000000000100 #
1+
b00000000000000000001000000000100 [
#142
0+
1;
#143
b00000000000000000001000000000000 #
1+
b00000000000000000001000000000000 [
#144
0+
#145
1+
#146
0+
#147
1+
#148
0+
0;
#149
b00000000000000000001000000000100 #
1+
b00000000000000000001000000000100 [
#150
0+
#151
b00000000000000000001000000001000 #
1+
b00000000000000000001000000001000 [
#152
0+
1;
#153
b00000000000000000001000000000000 #
1+
b00000000000000000001000000000000 [
#154
0+
0;
#155
b00000000000000000001000000000100 #
1+
b00000000000000000001000000000100 [
#156
0+
#157
b00000000000000000001000000001000 #
1+
b00000000000000000001000000001000 [
#158
0+
1;
#159
b00000000000000000001000000000000 #
1+
b00000000000000000001000000000000 [
#160
0+
0;
#161
b00000000000000000001000000000100 #
1+
b00000000000000000001000000000100 [
#162
0+
#163
b00000000000000000001000000001000 #
1+
b00000000000000000001000000001000 [
#164
0+
#165
b00000000000000000001000000001100 #
1+
b00000000000000000001000000001100 [
#166
0+
1;
#167
b00000000000000000001000000000000 #
1+
b00000000000000000001000000000000 [
#168
0+
0;
#169
b00000000000000000001000000000100 #
1+
b00000000000000000001000000000100 [
#170
0+
#171
b00000000000000000001000000001000 #
1+
b00000000000000000001000000001000 [
#172
0+
#173
b00000000000000000001000000001100 #
1+
b00000000000000000001000000001100 [
#174
0+
1;
#175
b00000000000000000001000000000000 #
1+
b00000000000000000001000000000000 [
#176
0+
#177
1+
#178
0+
0;
#179
b00000000000000000001000000000100 #
1+
b00000000000000000001000000000100 [
#180
0+
1;
#181
b00000000000000000001000000000000 #
1+
b00000000000000000001000000000000 [
#182
0+
#183
1+
#184
0+
#185
1+
#186
0+
#187
1+
#188
0+
#189
1+
#190
0+
#191
1+
#192
0+
0;
#193
b00000000000000000001000000000100 #
1+
b00000000000000000001000000000100 [
#194
0+
1;
#195
b00000000000000000001000000000000 #
1+
b00000000000000000001000000000000 [
#196
0+
#197
1+
#198
0+
#199
1+
#200
0+
0;
#201
b00000000000000000001000000000100 #
1+
b00000000000000000001000000000100 [
#202
0+
#203
b00000000000000000001000000001000 #
1+
b00000000000000000001000000001000 [
