hw3/test_run_dir/Single_Cycle_CPU_should_store_and_load_a_single_byte/TestTopModule.vcd
$version Generated by VerilatedVcd $end
$date Fri Dec  1 21:00:56 2023
 $end
$timescale   1ns $end

 $scope module TOP $end
  $var wire  1 a+ clock $end
  $var wire 32 q+ io_mem_debug_read_address [31:0] $end
  $var wire 32 +, io_mem_debug_read_data [31:0] $end
  $var wire  5 y+ io_regs_debug_read_address [4:0] $end
  $var wire 32 #, io_regs_debug_read_data [31:0] $end
  $var wire  1 i+ reset $end
  $scope module TestTopModule $end
   $var wire  2 U% CPU_clkdiv [1:0] $end
   $var wire  1 a+ clock $end
   $var wire  1 M% cpu_clock $end
   $var wire  5 y+ cpu_io_debug_read_address [4:0] $end
   $var wire 32 3, cpu_io_debug_read_data [31:0] $end
   $var wire 32 =% cpu_io_instruction [31:0] $end
   $var wire 32 K( cpu_io_instruction_address [31:0] $end
   $var wire  1 Q+ cpu_io_instruction_valid $end
   $var wire 32 +$ cpu_io_memory_bundle_address [31:0] $end
   $var wire 32 U! cpu_io_memory_bundle_read_data [31:0] $end
   $var wire 32 A# cpu_io_memory_bundle_write_data [31:0] $end
   $var wire  1 M! cpu_io_memory_bundle_write_enable $end
   $var wire  1 I# cpu_io_memory_bundle_write_strobe_0 $end
   $var wire  1 Q# cpu_io_memory_bundle_write_strobe_1 $end
   $var wire  1 Y# cpu_io_memory_bundle_write_strobe_2 $end
   $var wire  1 a# cpu_io_memory_bundle_write_strobe_3 $end
   $var wire  1 i+ cpu_reset $end
   $var wire  1 a+ instruction_rom_clock $end
   $var wire 32 9+ instruction_rom_io_address [31:0] $end
   $var wire 32 =! instruction_rom_io_data [31:0] $end
   $var wire 32 q+ io_mem_debug_read_address [31:0] $end
   $var wire 32 +, io_mem_debug_read_data [31:0] $end
   $var wire  5 y+ io_regs_debug_read_address [4:0] $end
   $var wire 32 #, io_regs_debug_read_data [31:0] $end
   $var wire  1 a+ mem_clock $end
   $var wire 32 y# mem_io_bundle_address [31:0] $end
   $var wire 32 5% mem_io_bundle_read_data [31:0] $end
   $var wire 32 #$ mem_io_bundle_write_data [31:0] $end
   $var wire  1 5! mem_io_bundle_write_enable $end
   $var wire  1 !# mem_io_bundle_write_strobe_0 $end
   $var wire  1 )# mem_io_bundle_write_strobe_1 $end
   $var wire  1 1# mem_io_bundle_write_strobe_2 $end
   $var wire  1 9# mem_io_bundle_write_strobe_3 $end
   $var wire 32 q+ mem_io_debug_read_address [31:0] $end
   $var wire 32 E% mem_io_debug_read_data [31:0] $end
   $var wire 32 =% mem_io_instruction [31:0] $end
   $var wire 32 K( mem_io_instruction_address [31:0] $end
   $var wire  1 i+ reset $end
   $var wire  1 a+ rom_loader_clock $end
   $var wire 32 A+ rom_loader_io_bundle_address [31:0] $end
   $var wire 32 E! rom_loader_io_bundle_write_data [31:0] $end
   $var wire  1 I+ rom_loader_io_bundle_write_enable $end
   $var wire  1 I+ rom_loader_io_bundle_write_strobe_0 $end
   $var wire  1 I+ rom_loader_io_bundle_write_strobe_1 $end
   $var wire  1 I+ rom_loader_io_bundle_write_strobe_2 $end
   $var wire  1 I+ rom_loader_io_bundle_write_strobe_3 $end
   $var wire  1 Q+ rom_loader_io_load_finished $end
   $var wire 32 9+ rom_loader_io_rom_address [31:0] $end
   $var wire 32 =! rom_loader_io_rom_data [31:0] $end
   $var wire  1 i+ rom_loader_reset $end
   $scope module cpu $end
    $var wire  1 M% clock $end
    $var wire  1 /" ex_io_aluop1_source $end
    $var wire  1 7" ex_io_aluop2_source $end
    $var wire 32 -! ex_io_if_jump_address [31:0] $end
    $var wire  1 i# ex_io_if_jump_flag $end
    $var wire 32 '" ex_io_immediate [31:0] $end
    $var wire 32 }! ex_io_instruction [31:0] $end
    $var wire 32 K( ex_io_instruction_address [31:0] $end
    $var wire 32 s$ ex_io_mem_alu_result [31:0] $end
    $var wire 32 c$ ex_io_reg1_data [31:0] $end
    $var wire 32 k$ ex_io_reg2_data [31:0] $end
    $var wire  1 /" id_io_ex_aluop1_source $end
    $var wire  1 7" id_io_ex_aluop2_source $end
    $var wire 32 '" id_io_ex_immediate [31:0] $end
    $var wire 32 }! id_io_instruction [31:0] $end
    $var wire  1 ?" id_io_memory_read_enable $end
    $var wire  1 G" id_io_memory_write_enable $end
    $var wire  5 e! id_io_reg_write_address [4:0] $end
    $var wire  1 ]! id_io_reg_write_enable $end
    $var wire  5 m! id_io_regs_reg1_read_address [4:0] $end
    $var wire  5 u! id_io_regs_reg2_read_address [4:0] $end
    $var wire  2 O" id_io_wb_reg_write_source [1:0] $end
    $var wire  1 %! inst_fetch_clock $end
    $var wire 32 }! inst_fetch_io_instruction [31:0] $end
    $var wire 32 K( inst_fetch_io_instruction_address [31:0] $end
    $var wire 32 =% inst_fetch_io_instruction_read_data [31:0] $end
    $var wire  1 Q+ inst_fetch_io_instruction_valid $end
    $var wire 32 -! inst_fetch_io_jump_address_id [31:0] $end
    $var wire  1 i# inst_fetch_io_jump_flag_id $end
    $var wire  1 i+ inst_fetch_reset $end
    $var wire  5 y+ io_debug_read_address [4:0] $end
    $var wire 32 3, io_debug_read_data [31:0] $end
    $var wire 32 =% io_instruction [31:0] $end
    $var wire 32 K( io_instruction_address [31:0] $end
    $var wire  1 Q+ io_instruction_valid $end
    $var wire 32 +$ io_memory_bundle_address [31:0] $end
    $var wire 32 U! io_memory_bundle_read_data [31:0] $end
    $var wire 32 A# io_memory_bundle_write_data [31:0] $end
    $var wire  1 M! io_memory_bundle_write_enable $end
    $var wire  1 I# io_memory_bundle_write_strobe_0 $end
    $var wire  1 Q# io_memory_bundle_write_strobe_1 $end
    $var wire  1 Y# io_memory_bundle_write_strobe_2 $end
    $var wire  1 a# io_memory_bundle_write_strobe_3 $end
    $var wire 32 s$ mem_io_alu_result [31:0] $end
    $var wire  3 W" mem_io_funct3 [2:0] $end
    $var wire 32 s$ mem_io_memory_bundle_address [31:0] $end
    $var wire 32 U! mem_io_memory_bundle_read_data [31:0] $end
    $var wire 32 A# mem_io_memory_bundle_write_data [31:0] $end
    $var wire  1 M! mem_io_memory_bundle_write_enable $end
    $var wire  1 I# mem_io_memory_bundle_write_strobe_0 $end
    $var wire  1 Q# mem_io_memory_bundle_write_strobe_1 $end
    $var wire  1 Y# mem_io_memory_bundle_write_strobe_2 $end
    $var wire  1 a# mem_io_memory_bundle_write_strobe_3 $end
    $var wire  1 ?" mem_io_memory_read_enable $end
    $var wire  1 G" mem_io_memory_write_enable $end
    $var wire 32 k$ mem_io_reg2_data [31:0] $end
    $var wire 32 q# mem_io_wb_memory_read_data [31:0] $end
    $var wire  1 %! regs_clock $end
    $var wire  5 y+ regs_io_debug_read_address [4:0] $end
    $var wire 32 3, regs_io_debug_read_data [31:0] $end
    $var wire  5 m! regs_io_read_address1 [4:0] $end
    $var wire  5 u! regs_io_read_address2 [4:0] $end
    $var wire 32 c$ regs_io_read_data1 [31:0] $end
    $var wire 32 k$ regs_io_read_data2 [31:0] $end
    $var wire  5 e! regs_io_write_address [4:0] $end
    $var wire 32 [$ regs_io_write_data [31:0] $end
    $var wire  1 ]! regs_io_write_enable $end
    $var wire  1 i+ regs_reset $end
    $var wire  1 i+ reset $end
    $var wire 32 s$ wb_io_alu_result [31:0] $end
    $var wire 32 K( wb_io_instruction_address [31:0] $end
    $var wire 32 q# wb_io_memory_read_data [31:0] $end
    $var wire 32 [$ wb_io_regs_write_data [31:0] $end
    $var wire  2 O" wb_io_regs_write_source [1:0] $end
    $scope module ex $end
     $var wire  4 o" alu_ctrl_io_alu_funct [3:0] $end
     $var wire  3 W" alu_ctrl_io_funct3 [2:0] $end
     $var wire  7 w" alu_ctrl_io_funct7 [6:0] $end
     $var wire  7 _" alu_ctrl_io_opcode [6:0] $end
     $var wire  4 o" alu_io_func [3:0] $end
     $var wire 32 {$ alu_io_op1 [31:0] $end
     $var wire 32 %% alu_io_op2 [31:0] $end
     $var wire 32 s$ alu_io_result [31:0] $end
     $var wire  3 W" funct3 [2:0] $end
     $var wire  1 /" io_aluop1_source $end
     $var wire  1 7" io_aluop2_source $end
     $var wire 32 -! io_if_jump_address [31:0] $end
     $var wire  1 i# io_if_jump_flag $end
     $var wire 32 '" io_immediate [31:0] $end
     $var wire 32 }! io_instruction [31:0] $end
     $var wire 32 K( io_instruction_address [31:0] $end
     $var wire 32 s$ io_mem_alu_result [31:0] $end
     $var wire 32 c$ io_reg1_data [31:0] $end
     $var wire 32 k$ io_reg2_data [31:0] $end
     $var wire  7 _" opcode [6:0] $end
     $scope module alu $end
      $var wire  4 o" io_func [3:0] $end
      $var wire 32 {$ io_op1 [31:0] $end
      $var wire 32 %% io_op2 [31:0] $end
      $var wire 32 s$ io_result [31:0] $end
     $upscope $end
     $scope module alu_ctrl $end
      $var wire  4 o" io_alu_funct [3:0] $end
      $var wire  3 W" io_funct3 [2:0] $end
      $var wire  7 w" io_funct7 [6:0] $end
      $var wire  7 _" io_opcode [6:0] $end
     $upscope $end
    $upscope $end
    $scope module id $end
     $var wire  1 /" io_ex_aluop1_source $end
     $var wire  1 7" io_ex_aluop2_source $end
     $var wire 32 '" io_ex_immediate [31:0] $end
     $var wire 32 }! io_instruction [31:0] $end
     $var wire  1 ?" io_memory_read_enable $end
     $var wire  1 G" io_memory_write_enable $end
     $var wire  5 e! io_reg_write_address [4:0] $end
     $var wire  1 ]! io_reg_write_enable $end
     $var wire  5 m! io_regs_reg1_read_address [4:0] $end
     $var wire  5 u! io_regs_reg2_read_address [4:0] $end
     $var wire  2 O" io_wb_reg_write_source [1:0] $end
     $var wire  7 _" opcode [6:0] $end
     $var wire  5 e! rd [4:0] $end
     $var wire  5 g" rs1 [4:0] $end
    $upscope $end
    $scope module inst_fetch $end
     $var wire  1 %! clock $end
     $var wire 32 }! io_instruction [31:0] $end
     $var wire 32 K( io_instruction_address [31:0] $end
     $var wire 32 =% io_instruction_read_data [31:0] $end
     $var wire  1 Q+ io_instruction_valid $end
     $var wire 32 -! io_jump_address_id [31:0] $end
     $var wire  1 i# io_jump_flag_id $end
     $var wire 32 K( pc [31:0] $end
     $var wire  1 i+ reset $end
    $upscope $end
    $scope module mem $end
     $var wire 32 s$ io_alu_result [31:0] $end
     $var wire  3 W" io_funct3 [2:0] $end
     $var wire 32 s$ io_memory_bundle_address [31:0] $end
     $var wire 32 U! io_memory_bundle_read_data [31:0] $end
     $var wire 32 A# io_memory_bundle_write_data [31:0] $end
     $var wire  1 M! io_memory_bundle_write_enable $end
     $var wire  1 I# io_memory_bundle_write_strobe_0 $end
     $var wire  1 Q# io_memory_bundle_write_strobe_1 $end
     $var wire  1 Y# io_memory_bundle_write_strobe_2 $end
     $var wire  1 a# io_memory_bundle_write_strobe_3 $end
     $var wire  1 ?" io_memory_read_enable $end
     $var wire  1 G" io_memory_write_enable $end
     $var wire 32 k$ io_reg2_data [31:0] $end
     $var wire 32 q# io_wb_memory_read_data [31:0] $end
     $var wire  2 -% mem_address_index [1:0] $end
    $upscope $end
    $scope module regs $end
     $var wire  1 %! clock $end
     $var wire  5 y+ io_debug_read_address [4:0] $end
     $var wire 32 3, io_debug_read_data [31:0] $end
     $var wire  5 m! io_read_address1 [4:0] $end
     $var wire  5 u! io_read_address2 [4:0] $end
     $var wire 32 c$ io_read_data1 [31:0] $end
     $var wire 32 k$ io_read_data2 [31:0] $end
     $var wire  5 e! io_write_address [4:0] $end
     $var wire 32 [$ io_write_data [31:0] $end
     $var wire  1 ]! io_write_enable $end
     $var wire 32 S( registers_0 [31:0] $end
     $var wire 32 [( registers_1 [31:0] $end
     $var wire 32 E) registers_10 [31:0] $end
     $var wire 32 M) registers_11 [31:0] $end
     $var wire 32 U) registers_12 [31:0] $end
     $var wire 32 ]) registers_13 [31:0] $end
     $var wire 32 e) registers_14 [31:0] $end
     $var wire 32 m) registers_15 [31:0] $end
     $var wire 32 u) registers_16 [31:0] $end
     $var wire 32 }) registers_17 [31:0] $end
     $var wire 32 '* registers_18 [31:0] $end
     $var wire 32 /* registers_19 [31:0] $end
     $var wire 32 c( registers_2 [31:0] $end
     $var wire 32 7* registers_20 [31:0] $end
     $var wire 32 ?* registers_21 [31:0] $end
     $var wire 32 G* registers_22 [31:0] $end
     $var wire 32 O* registers_23 [31:0] $end
     $var wire 32 W* registers_24 [31:0] $end
     $var wire 32 _* registers_25 [31:0] $end
     $var wire 32 g* registers_26 [31:0] $end
     $var wire 32 o* registers_27 [31:0] $end
     $var wire 32 w* registers_28 [31:0] $end
     $var wire 32 !+ registers_29 [31:0] $end
     $var wire 32 k( registers_3 [31:0] $end
     $var wire 32 )+ registers_30 [31:0] $end
     $var wire 32 1+ registers_31 [31:0] $end
     $var wire 32 s( registers_4 [31:0] $end
     $var wire 32 {( registers_5 [31:0] $end
     $var wire 32 %) registers_6 [31:0] $end
     $var wire 32 -) registers_7 [31:0] $end
     $var wire 32 5) registers_8 [31:0] $end
     $var wire 32 =) registers_9 [31:0] $end
     $var wire  1 i+ reset $end
    $upscope $end
    $scope module wb $end
     $var wire 32 s$ io_alu_result [31:0] $end
     $var wire 32 K( io_instruction_address [31:0] $end
     $var wire 32 q# io_memory_read_data [31:0] $end
     $var wire 32 [$ io_regs_write_data [31:0] $end
     $var wire  2 O" io_regs_write_source [1:0] $end
    $upscope $end
   $upscope $end
   $scope module instruction_rom $end
    $var wire  1 a+ clock $end
    $var wire 32 C, initvar [31:0] $end
    $var wire 32 9+ io_address [31:0] $end
    $var wire 32 =! io_data [31:0] $end
    $var wire 32 # mem(0) [31:0] $end
    $var wire 32 $ mem(1) [31:0] $end
    $var wire 32 - mem(10) [31:0] $end
    $var wire 32 . mem(11) [31:0] $end
    $var wire 32 % mem(2) [31:0] $end
    $var wire 32 & mem(3) [31:0] $end
    $var wire 32 ' mem(4) [31:0] $end
    $var wire 32 ( mem(5) [31:0] $end
    $var wire 32 ) mem(6) [31:0] $end
    $var wire 32 * mem(7) [31:0] $end
    $var wire 32 + mem(8) [31:0] $end
    $var wire 32 , mem(9) [31:0] $end
    $var wire  4 Y+ mem_io_data_MPORT_addr [3:0] $end
    $var wire 32 =! mem_io_data_MPORT_data [31:0] $end
    $var wire  1 ;, mem_io_data_MPORT_en $end
   $upscope $end
   $scope module mem $end
    $var wire  1 a+ clock $end
    $var wire 32 y# io_bundle_address [31:0] $end
    $var wire 32 5% io_bundle_read_data [31:0] $end
    $var wire 16 #( io_bundle_read_data_hi [15:0] $end
    $var wire 16 y' io_bundle_read_data_lo [15:0] $end
    $var wire 32 #$ io_bundle_write_data [31:0] $end
    $var wire  1 5! io_bundle_write_enable $end
    $var wire  1 !# io_bundle_write_strobe_0 $end
    $var wire  1 )# io_bundle_write_strobe_1 $end
    $var wire  1 1# io_bundle_write_strobe_2 $end
    $var wire  1 9# io_bundle_write_strobe_3 $end
    $var wire 32 q+ io_debug_read_address [31:0] $end
    $var wire 32 E% io_debug_read_data [31:0] $end
    $var wire 16 3( io_debug_read_data_hi [15:0] $end
    $var wire 16 +( io_debug_read_data_lo [15:0] $end
    $var wire 32 =% io_instruction [31:0] $end
    $var wire 32 K( io_instruction_address [31:0] $end
    $var wire 16 C( io_instruction_hi [15:0] $end
    $var wire 16 ;( io_instruction_lo [15:0] $end
    $var wire 13 ;$ mem_0_MPORT_addr [12:0] $end
    $var wire  8 3$ mem_0_MPORT_data [7:0] $end
    $var wire  1 5! mem_0_MPORT_en $end
    $var wire  1 !# mem_0_MPORT_mask $end
    $var wire 13 e% mem_0_io_bundle_read_data_MPORT_addr [12:0] $end
    $var wire 13 e% mem_0_io_bundle_read_data_MPORT_addr_pipe_0 [12:0] $end
    $var wire  8 m% mem_0_io_bundle_read_data_MPORT_data [7:0] $end
    $var wire  1 ]% mem_0_io_bundle_read_data_MPORT_en $end
    $var wire  1 ]% mem_0_io_bundle_read_data_MPORT_en_pipe_0 $end
    $var wire 13 }% mem_0_io_debug_read_data_MPORT_addr [12:0] $end
    $var wire 13 }% mem_0_io_debug_read_data_MPORT_addr_pipe_0 [12:0] $end
    $var wire  8 '& mem_0_io_debug_read_data_MPORT_data [7:0] $end
    $var wire  1 u% mem_0_io_debug_read_data_MPORT_en $end
    $var wire  1 u% mem_0_io_debug_read_data_MPORT_en_pipe_0 $end
    $var wire 13 7& mem_0_io_instruction_MPORT_addr [12:0] $end
    $var wire 13 7& mem_0_io_instruction_MPORT_addr_pipe_0 [12:0] $end
    $var wire  8 ?& mem_0_io_instruction_MPORT_data [7:0] $end
    $var wire  1 /& mem_0_io_instruction_MPORT_en $end
    $var wire  1 /& mem_0_io_instruction_MPORT_en_pipe_0 $end
    $var wire 13 ;$ mem_1_MPORT_addr [12:0] $end
    $var wire  8 C$ mem_1_MPORT_data [7:0] $end
    $var wire  1 5! mem_1_MPORT_en $end
    $var wire  1 )# mem_1_MPORT_mask $end
    $var wire 13 e% mem_1_io_bundle_read_data_MPORT_addr [12:0] $end
    $var wire 13 e% mem_1_io_bundle_read_data_MPORT_addr_pipe_0 [12:0] $end
    $var wire  8 O& mem_1_io_bundle_read_data_MPORT_data [7:0] $end
    $var wire  1 G& mem_1_io_bundle_read_data_MPORT_en $end
    $var wire  1 G& mem_1_io_bundle_read_data_MPORT_en_pipe_0 $end
    $var wire 13 }% mem_1_io_debug_read_data_MPORT_addr [12:0] $end
    $var wire 13 }% mem_1_io_debug_read_data_MPORT_addr_pipe_0 [12:0] $end
    $var wire  8 _& mem_1_io_debug_read_data_MPORT_data [7:0] $end
    $var wire  1 W& mem_1_io_debug_read_data_MPORT_en $end
    $var wire  1 W& mem_1_io_debug_read_data_MPORT_en_pipe_0 $end
    $var wire 13 7& mem_1_io_instruction_MPORT_addr [12:0] $end
    $var wire 13 7& mem_1_io_instruction_MPORT_addr_pipe_0 [12:0] $end
    $var wire  8 o& mem_1_io_instruction_MPORT_data [7:0] $end
    $var wire  1 g& mem_1_io_instruction_MPORT_en $end
    $var wire  1 g& mem_1_io_instruction_MPORT_en_pipe_0 $end
    $var wire 13 ;$ mem_2_MPORT_addr [12:0] $end
    $var wire  8 K$ mem_2_MPORT_data [7:0] $end
    $var wire  1 5! mem_2_MPORT_en $end
    $var wire  1 1# mem_2_MPORT_mask $end
    $var wire 13 e% mem_2_io_bundle_read_data_MPORT_addr [12:0] $end
    $var wire 13 e% mem_2_io_bundle_read_data_MPORT_addr_pipe_0 [12:0] $end
    $var wire  8 !' mem_2_io_bundle_read_data_MPORT_data [7:0] $end
    $var wire  1 w& mem_2_io_bundle_read_data_MPORT_en $end
    $var wire  1 w& mem_2_io_bundle_read_data_MPORT_en_pipe_0 $end
    $var wire 13 }% mem_2_io_debug_read_data_MPORT_addr [12:0] $end
    $var wire 13 }% mem_2_io_debug_read_data_MPORT_addr_pipe_0 [12:0] $end
    $var wire  8 1' mem_2_io_debug_read_data_MPORT_data [7:0] $end
    $var wire  1 )' mem_2_io_debug_read_data_MPORT_en $end
    $var wire  1 )' mem_2_io_debug_read_data_MPORT_en_pipe_0 $end
    $var wire 13 7& mem_2_io_instruction_MPORT_addr [12:0] $end
    $var wire 13 7& mem_2_io_instruction_MPORT_addr_pipe_0 [12:0] $end
    $var wire  8 A' mem_2_io_instruction_MPORT_data [7:0] $end
    $var wire  1 9' mem_2_io_instruction_MPORT_en $end
    $var wire  1 9' mem_2_io_instruction_MPORT_en_pipe_0 $end
    $var wire 13 ;$ mem_3_MPORT_addr [12:0] $end
    $var wire  8 S$ mem_3_MPORT_data [7:0] $end
    $var wire  1 5! mem_3_MPORT_en $end
    $var wire  1 9# mem_3_MPORT_mask $end
    $var wire 13 e% mem_3_io_bundle_read_data_MPORT_addr [12:0] $end
    $var wire 13 e% mem_3_io_bundle_read_data_MPORT_addr_pipe_0 [12:0] $end
    $var wire  8 Q' mem_3_io_bundle_read_data_MPORT_data [7:0] $end
    $var wire  1 I' mem_3_io_bundle_read_data_MPORT_en $end
    $var wire  1 I' mem_3_io_bundle_read_data_MPORT_en_pipe_0 $end
    $var wire 13 }% mem_3_io_debug_read_data_MPORT_addr [12:0] $end
    $var wire 13 }% mem_3_io_debug_read_data_MPORT_addr_pipe_0 [12:0] $end
    $var wire  8 a' mem_3_io_debug_read_data_MPORT_data [7:0] $end
    $var wire  1 Y' mem_3_io_debug_read_data_MPORT_en $end
    $var wire  1 Y' mem_3_io_debug_read_data_MPORT_en_pipe_0 $end
    $var wire 13 7& mem_3_io_instruction_MPORT_addr [12:0] $end
    $var wire 13 7& mem_3_io_instruction_MPORT_addr_pipe_0 [12:0] $end
    $var wire  8 q' mem_3_io_instruction_MPORT_data [7:0] $end
    $var wire  1 i' mem_3_io_instruction_MPORT_en $end
    $var wire  1 i' mem_3_io_instruction_MPORT_en_pipe_0 $end
   $upscope $end
   $scope module rom_loader $end
    $var wire 32 9+ address [31:0] $end
    $var wire  1 a+ clock $end
    $var wire 32 A+ io_bundle_address [31:0] $end
    $var wire 32 E! io_bundle_write_data [31:0] $end
    $var wire  1 I+ io_bundle_write_enable $end
    $var wire  1 I+ io_bundle_write_strobe_0 $end
    $var wire  1 I+ io_bundle_write_strobe_1 $end
    $var wire  1 I+ io_bundle_write_strobe_2 $end
    $var wire  1 I+ io_bundle_write_strobe_3 $end
    $var wire  1 Q+ io_load_finished $end
    $var wire 32 9+ io_rom_address [31:0] $end
    $var wire 32 =! io_rom_data [31:0] $end
    $var wire  1 i+ reset $end
    $var wire  1 Q+ valid $end
   $upscope $end
  $upscope $end
 $upscope $end
$enddefinitions $end


#0
b00000000010000000000010100010011 #
b11011110101011011100001010110111 $
b11101110111100101000001010010011 %
b00000000010101010000000000100011 &
b00000000000001010010001100000011 '
b00000001010100000000100100010011 (
b00000001001001010000000010100011 )
b00000000000001010010000010000011 *
b00000000000000000000000001101111 +
b00000000000000000000000000010011 ,
b00000000000000000000000000010011 -
b00000000000000000000000000010011 .
1%!
b00000000000000000001000000000000 -!
15!
b00000000010000000000010100010011 =!
b00000000010000000000010100010011 E!
0M!
b00000000000000000000000000000000 U!
1]!
b00000 e!
b00000 m!
b00000 u!
b00000000000000000000000000010011 }!
b00000000000000000000000000000000 '"
0/"
17"
0?"
0G"
b00 O"
b000 W"
b0010011 _"
b00000 g"
b0001 o"
b0000000 w"
1!#
1)#
11#
19#
b00000000000000000000000000000000 A#
0I#
0Q#
0Y#
0a#
0i#
b00000000000000000000000000000000 q#
b00000000000000000001000000000000 y#
b00000000010000000000010100010011 #$
b00000000000000000000000000000000 +$
b00010011 3$
b0010000000000 ;$
b00000101 C$
b01000000 K$
b00000000 S$
b00000000000000000000000000000000 [$
b00000000000000000000000000000000 c$
b00000000000000000000000000000000 k$
b00000000000000000000000000000000 s$
b00000000000000000000000000000000 {$
b00000000000000000000000000000000 %%
b00 -%
b00000000000000000000000000000000 5%
b00000000000000000000000000000000 =%
b00000000000000000000000000000000 E%
1M%
b00 U%
0]%
b0000000000000 e%
b00000000 m%
0u%
b0000000000000 }%
b00000000 '&
0/&
b0000000000000 7&
b00000000 ?&
0G&
b00000000 O&
0W&
b00000000 _&
0g&
b00000000 o&
0w&
b00000000 !'
0)'
b00000000 1'
09'
b00000000 A'
0I'
b00000000 Q'
0Y'
b00000000 a'
0i'
b00000000 q'
b0000000000000000 y'
b0000000000000000 #(
b0000000000000000 +(
b0000000000000000 3(
b0000000000000000 ;(
b0000000000000000 C(
b00000000000000000001000000000000 K(
b00000000000000000000000000000000 S(
b00000000000000000000000000000000 [(
b00000000000000000000000000000000 c(
b00000000000000000000000000000000 k(
b00000000000000000000000000000000 s(
b00000000000000000000000000000000 {(
b00000000000000000000000000000000 %)
b00000000000000000000000000000000 -)
b00000000000000000000000000000000 5)
b00000000000000000000000000000000 =)
b00000000000000000000000000000000 E)
b00000000000000000000000000000000 M)
b00000000000000000000000000000000 U)
b00000000000000000000000000000000 ])
b00000000000000000000000000000000 e)
b00000000000000000000000000000000 m)
b00000000000000000000000000000000 u)
b00000000000000000000000000000000 })
b00000000000000000000000000000000 '*
b00000000000000000000000000000000 /*
b00000000000000000000000000000000 7*
b00000000000000000000000000000000 ?*
b00000000000000000000000000000000 G*
b00000000000000000000000000000000 O*
b00000000000000000000000000000000 W*
b00000000000000000000000000000000 _*
b00000000000000000000000000000000 g*
b00000000000000000000000000000000 o*
b00000000000000000000000000000000 w*
b00000000000000000000000000000000 !+
b00000000000000000000000000000000 )+
b00000000000000000000000000000000 1+
b00000000000000000000000000000000 9+
b00000000000000000001000000000000 A+
1I+
0Q+
b0000 Y+
0a+
1i+
b00000000000000000000000000000000 q+
b00000 y+
b00000000000000000000000000000000 #,
b00000000000000000000000000000000 +,
b00000000000000000000000000000000 3,
1;,
b00000000000000000000000000000000 C,
#1
b00000000010000000000010100010011 5%
b00000000010000000000010100010011 =%
1]%
b0010000000000 e%
b00010011 m%
1u%
1/&
b0010000000000 7&
b00010011 ?&
1G&
b00000101 O&
1W&
1g&
b00000101 o&
1w&
b01000000 !'
1)'
19'
b01000000 A'
1I'
1Y'
1i'
b0000010100010011 y'
b0000000001000000 #(
b0000010100010011 ;(
b0000000001000000 C(
1a+
#2
0a+
0i+
#3
0%!
b11011110101011011100001010110111 =!
b11011110101011011100001010110111 E!
b00000000000000000001000000000100 y#
b11011110101011011100001010110111 #$
b10110111 3$
b0010000000001 ;$
b11000010 C$
b10101101 K$
b11011110 S$
0M%
b01 U%
b00000000000000000000000000000001 9+
b00000000000000000001000000000100 A+
b0001 Y+
1a+
#4
0a+
b00000000000000000000000000000100 q+
#5
b11101110111100101000001010010011 =!
b11101110111100101000001010010011 E!
b00000000000000000001000000001000 y#
b11101110111100101000001010010011 #$
b10010011 3$
b0010000000010 ;$
b10000010 C$
b11110010 K$
b11101110 S$
b11011110101011011100001010110111 5%
b10 U%
b0010000000001 e%
b10110111 m%
b0000000000001 }%
b11000010 O&
b10101101 !'
b11011110 Q'
b1100001010110111 y'
b1101111010101101 #(
b00000000000000000000000000000010 9+
b00000000000000000001000000001000 A+
b0010 Y+
1a+
#6
0a+
b00000000000000000000000000001000 q+
#7
b00000000010101010000000000100011 =!
b00000000010101010000000000100011 E!
b00000000000000000001000000001100 y#
b00000000010101010000000000100011 #$
b00100011 3$
b0010000000011 ;$
b00000000 C$
b01010101 K$
b00000000 S$
b11101110111100101000001010010011 5%
b11 U%
b0010000000010 e%
b10010011 m%
b0000000000010 }%
b10000010 O&
b11110010 !'
b11101110 Q'
b1000001010010011 y'
b1110111011110010 #(
b00000000000000000000000000000011 9+
b00000000000000000001000000001100 A+
b0011 Y+
1a+
#8
0a+
b00000000000000000000000000001100 q+
#9
1%!
b00000000000001010010001100000011 =!
b00000000000001010010001100000011 E!
b00000000000000000001000000010000 y#
b00000000000001010010001100000011 #$
b00000011 3$
b0010000000100 ;$
b00100011 C$
b00000101 K$
b00000000010101010000000000100011 5%
1M%
b00 U%
b0010000000011 e%
b00100011 m%
b0000000000011 }%
b00000000 O&
b01010101 !'
b00000000 Q'
b0000000000100011 y'
b0000000001010101 #(
b00000000000000000000000000000100 9+
b00000000000000000001000000010000 A+
b0100 Y+
1a+
#10
0a+
b00000000000000000000000000010000 q+
#11
0%!
b00000001010100000000100100010011 =!
b00000001010100000000100100010011 E!
b00000000000000000001000000010100 y#
b00000001010100000000100100010011 #$
b00010011 3$
b0010000000101 ;$
b00001001 C$
b01010000 K$
b00000001 S$
b00000000000001010010001100000011 5%
0M%
b01 U%
b0010000000100 e%
b00000011 m%
b0000000000100 }%
b00100011 O&
b00000101 !'
b0010001100000011 y'
b0000000000000101 #(
b00000000000000000000000000000101 9+
b00000000000000000001000000010100 A+
b0101 Y+
1a+
#12
0a+
b00000000000000000000000000010100 q+
#13
b00000001001001010000000010100011 =!
b00000001001001010000000010100011 E!
b00000000000000000001000000011000 y#
b00000001001001010000000010100011 #$
b10100011 3$
b0010000000110 ;$
b00000000 C$
b00100101 K$
b00000001010100000000100100010011 5%
b10 U%
b0010000000101 e%
b00010011 m%
b0000000000101 }%
b00001001 O&
b01010000 !'
b00000001 Q'
b0000100100010011 y'
b0000000101010000 #(
b00000000000000000000000000000110 9+
b00000000000000000001000000011000 A+
b0110 Y+
1a+
#14
0a+
b00000000000000000000000000011000 q+
#15
b00000000000001010010000010000011 =!
b00000000000001010010000010000011 E!
b00000000000000000001000000011100 y#
b00000000000001010010000010000011 #$
b10000011 3$
b0010000000111 ;$
b00100000 C$
b00000101 K$
b00000000 S$
b00000001001001010000000010100011 5%
b11 U%
b0010000000110 e%
b10100011 m%
b0000000000110 }%
b00000000 O&
b00100101 !'
b0000000010100011 y'
b0000000100100101 #(
b00000000000000000000000000000111 9+
b00000000000000000001000000011100 A+
b0111 Y+
1a+
#16
0a+
b00000000000000000000000000011100 q+
#17
1%!
b00000000000000000000000001101111 =!
b00000000000000000000000001101111 E!
b00000000000000000001000000100000 y#
b00000000000000000000000001101111 #$
b01101111 3$
b0010000001000 ;$
b00000000 C$
b00000000 K$
b00000000000001010010000010000011 5%
1M%
b00 U%
b0010000000111 e%
b10000011 m%
b0000000000111 }%
b00100000 O&
b00000101 !'
b00000000 Q'
b0010000010000011 y'
b0000000000000101 #(
b00000000000000000000000000001000 9+
b00000000000000000001000000100000 A+
b1000 Y+
1a+
#18
0a+
b00000000000000000000000000100000 q+
#19
0%!
b00000000000000000000000000010011 =!
b00000000000000000000000000010011 E!
b00000000000000000001000000100100 y#
b00000000000000000000000000010011 #$
b00010011 3$
b0010000001001 ;$
b00000000000000000000000001101111 5%
0M%
b01 U%
b0010000001000 e%
b01101111 m%
b0000000001000 }%
b00000000 O&
b00000000 !'
b0000000001101111 y'
b0000000000000000 #(
b00000000000000000000000000001001 9+
b00000000000000000001000000100100 A+
b1001 Y+
1a+
#20
0a+
b00000000000000000000000000100100 q+
