hw3/test_run_dir/Execution_of_Single_Cycle_CPU_should_execute_correctly/Execute.vcd
$version Generated by VerilatedVcd $end
$date Fri Dec  1 21:00:55 2023
 $end
$timescale   1ns $end

 $scope module TOP $end
  $var wire  1 C clock $end
  $var wire  1 { io_aluop1_source $end
  $var wire  1 %! io_aluop2_source $end
  $var wire 32 =! io_if_jump_address [31:0] $end
  $var wire  1 5! io_if_jump_flag $end
  $var wire 32 s io_immediate [31:0] $end
  $var wire 32 S io_instruction [31:0] $end
  $var wire 32 [ io_instruction_address [31:0] $end
  $var wire 32 -! io_mem_alu_result [31:0] $end
  $var wire 32 c io_reg1_data [31:0] $end
  $var wire 32 k io_reg2_data [31:0] $end
  $var wire  1 K reset $end
  $scope module Execute $end
   $var wire  4 # alu_ctrl_io_alu_funct [3:0] $end
   $var wire  3 M! alu_ctrl_io_funct3 [2:0] $end
   $var wire  7 U! alu_ctrl_io_funct7 [6:0] $end
   $var wire  7 E! alu_ctrl_io_opcode [6:0] $end
   $var wire  4 # alu_io_func [3:0] $end
   $var wire 32 + alu_io_op1 [31:0] $end
   $var wire 32 3 alu_io_op2 [31:0] $end
   $var wire 32 ; alu_io_result [31:0] $end
   $var wire  1 C clock $end
   $var wire  3 M! funct3 [2:0] $end
   $var wire  1 { io_aluop1_source $end
   $var wire  1 %! io_aluop2_source $end
   $var wire 32 =! io_if_jump_address [31:0] $end
   $var wire  1 5! io_if_jump_flag $end
   $var wire 32 s io_immediate [31:0] $end
   $var wire 32 S io_instruction [31:0] $end
   $var wire 32 [ io_instruction_address [31:0] $end
   $var wire 32 -! io_mem_alu_result [31:0] $end
   $var wire 32 c io_reg1_data [31:0] $end
   $var wire 32 k io_reg2_data [31:0] $end
   $var wire  7 E! opcode [6:0] $end
   $var wire  1 K reset $end
   $scope module alu $end
    $var wire  4 # io_func [3:0] $end
    $var wire 32 + io_op1 [31:0] $end
    $var wire 32 3 io_op2 [31:0] $end
    $var wire 32 ; io_result [31:0] $end
   $upscope $end
   $scope module alu_ctrl $end
    $var wire  4 # io_alu_funct [3:0] $end
    $var wire  3 M! io_funct3 [2:0] $end
    $var wire  7 U! io_funct7 [6:0] $end
    $var wire  7 E! io_opcode [6:0] $end
   $upscope $end
  $upscope $end
 $upscope $end
$enddefinitions $end


#0
b0000 #
b00000000000000000000000000000000 +
b00000000000000000000000000000000 3
b00000000000000000000000000000000 ;
0C
1K
b00000000000000000000000000000000 S
b00000000000000000000000000000000 [
b00000000000000000000000000000000 c
b00000000000000000000000000000000 k
b00000000000000000000000000000000 s
0{
0%!
b00000000000000000000000000000000 -!
05!
b00000000000000000000000000000000 =!
b0000000 E!
b000 M!
b0000000 U!
#1
1C
#2
b0001 #
b00010111101110100000110111110001 +
b00000000001110001101011010001000 3
b00010111111100101110010001111001 ;
0C
0K
b00000000000100010000000110110011 S
b00010111101110100000110111110001 c
b00000000001110001101011010001000 k
b00010111111100101110010001111001 -!
b0110011 E!
#3
1C
#4
b00011000001100100110101101111101 +
b00001010001101101011000110001011 3
b00100010011010010001110100001000 ;
0C
b00011000001100100110101101111101 c
b00001010001101101011000110001011 k
b00100010011010010001110100001000 -!
#5
1C
#6
b00010010101100000000011000001111 +
b00001111010101111010010110000010 3
b00100010000001111010101110010001 ;
0C
b00010010101100000000011000001111 c
b00001111010101111010010110000010 k
b00100010000001111010101110010001 -!
#7
1C
#8
b00000001100010011100111111001111 +
b00000101100011000001001100000111 3
b00000111000101011110001011010110 ;
0C
b00000001100010011100111111001111 c
b00000101100011000001001100000111 k
b00000111000101011110001011010110 -!
#9
1C
#10
b00010011110110011011000111011010 +
b00010110001001010000011011011100 3
b00101001111111101011100010110110 ;
0C
b00010011110110011011000111011010 c
b00010110001001010000011011011100 k
b00101001111111101011100010110110 -!
#11
1C
#12
b00001100101101101101010111001101 +
b00010010010000111001000100001111 3
b00011110111110100110011011011100 ;
0C
b00001100101101101101010111001101 c
b00010010010000111001000100001111 k
b00011110111110100110011011011100 -!
#13
1C
#14
b00011001100110000011010000001001 +
b00000100111000010111101001001011 3
b00011110011110011010111001010100 ;
0C
b00011001100110000011010000001001 c
b00000100111000010111101001001011 k
b00011110011110011010111001010100 -!
#15
1C
#16
b00000110110001000001011000111010 +
b00011001011101101110010101010111 3
b00100000001110101111101110010001 ;
0C
b00000110110001000001011000111010 c
b00011001011101101110010101010111 k
b00100000001110101111101110010001 -!
#17
1C
#18
b00010001011110101110010011000100 +
b00010000110100111011101010010010 3
b00100010010011101001111101010110 ;
0C
b00010001011110101110010011000100 c
b00010000110100111011101010010010 k
b00100010010011101001111101010110 -!
#19
1C
#20
b00000000011010101111011000001011 +
b00000101111010001100000110110101 3
b00000110010100111011011111000000 ;
0C
b00000000011010101111011000001011 c
b00000101111010001100000110110101 k
b00000110010100111011011111000000 -!
#21
1C
#22
b00000110011110101000001100111110 +
b00000111110111010111011110001111 3
b00001110010101111111101011001101 ;
0C
b00000110011110101000001100111110 c
b00000111110111010111011110001111 k
b00001110010101111111101011001101 -!
#23
1C
#24
b00010101010001000100101000101001 +
b00000111111011100100001010111011 3
b00011101001100101000110011100100 ;
0C
b00010101010001000100101000101001 c
b00000111111011100100001010111011 k
b00011101001100101000110011100100 -!
#25
1C
#26
b00010010010001000010000100100111 +
b00010000101011000011110000001100 3
b00100010111100000101110100110011 ;
0C
b00010010010001000010000100100111 c
b00010000101011000011110000001100 k
b00100010111100000101110100110011 -!
#27
1C
#28
b00000010010000000110111100000001 +
b00000000010101101000011000100000 3
b00000010100101101111010100100001 ;
0C
b00000010010000000110111100000001 c
b00000000010101101000011000100000 k
b00000010100101101111010100100001 -!
#29
1C
#30
b00001110111100111100011001011000 +
b00010001110110100111010001000111 3
b00100000110011100011101010011111 ;
0C
b00001110111100111100011001011000 c
b00010001110110100111010001000111 k
b00100000110011100011101010011111 -!
#31
1C
#32
b00001110001001110111001001000000 +
b00000000111001010000010111101111 3
b00001111000011000111100000101111 ;
0C
b00001110001001110111001001000000 c
b00000000111001010000010111101111 k
b00001111000011000111100000101111 -!
#33
1C
#34
b00001100111101100100100011000001 +
b00010000111100001111000110101000 3
b00011101111001110011101001101001 ;
0C
b00001100111101100100100011000001 c
b00010000111100001111000110101000 k
b00011101111001110011101001101001 -!
#35
1C
#36
b00000100001011011001100010110001 +
b00001101101011011110010011000110 3
b00010001110110110111110101110111 ;
0C
b00000100001011011001100010110001 c
b00001101101011011110010011000110 k
b00010001110110110111110101110111 -!
#37
1C
#38
b00001011110110101001001110011100 +
b00010101001110011000101001111010 3
b00100001000101000001111000010110 ;
0C
b00001011110110101001001110011100 c
b00010101001110011000101001111010 k
b00100001000101000001111000010110 -!
#39
1C
#40
b00000100011100011100101110010001 +
b00000010010111000101001100101011 3
b00000110110011100001111010111100 ;
0C
b00000100011100011100101110010001 c
b00000010010111000101001100101011 k
b00000110110011100001111010111100 -!
#41
1C
#42
b00001011001110111011110010000101 +
b00010110110110000010010010110100 3
b00100010000100111110000100111001 ;
0C
b00001011001110111011110010000101 c
b00010110110110000010010010110100 k
b00100010000100111110000100111001 -!
#43
1C
#44
b00000111001101100111101110010001 +
b00000101110000011100100110110100 3
b00001100111110000100010101000101 ;
0C
b00000111001101100111101110010001 c
b00000101110000011100100110110100 k
b00001100111110000100010101000101 -!
#45
1C
#46
b00001011110000000000110111111001 +
b00010001100001011110101001110011 3
b00011101010001011111100001101100 ;
0C
b00001011110000000000110111111001 c
b00010001100001011110101001110011 k
b00011101010001011111100001101100 -!
#47
1C
#48
b00001001000111001001110001010000 +
b00000101100111100001001001000000 3
b00001110101110101010111010010000 ;
0C
b00001001000111001001110001010000 c
b00000101100111100001001001000000 k
b00001110101110101010111010010000 -!
#49
1C
#50
b00001010110011101001100100001010 +
b00011001001000001100110111001000 3
b00100011111011110110011011010010 ;
0C
b00001010110011101001100100001010 c
b00011001001000001100110111001000 k
b00100011111011110110011011010010 -!
#51
1C
#52
b00010110101000100001110101000110 +
b00000110100100010100001100101001 3
b00011101001100110110000001101111 ;
0C
b00010110101000100001110101000110 c
b00000110100100010100001100101001 k
b00011101001100110110000001101111 -!
#53
1C
#54
b00000001010000110010111100000010 +
b00000100000111001111001111110111 3
b00000101011000000010001011111001 ;
0C
b00000001010000110010111100000010 c
b00000100000111001111001111110111 k
b00000101011000000010001011111001 -!
#55
1C
#56
b00010110111011110001100011111110 +
b00000011001011010011111111001000 3
b00011010000111000101100011000110 ;
0C
b00010110111011110001100011111110 c
b00000011001011010011111111001000 k
b00011010000111000101100011000110 -!
#57
1C
#58
b00000100111011111100010100100101 +
b00010110001101010000101001110110 3
b00011011001001001100111110011011 ;
0C
b00000100111011111100010100100101 c
b00010110001101010000101001110110 k
b00011011001001001100111110011011 -!
#59
1C
#60
b00000011111110001101111110100100 +
b00010010011000111100111111100001 3
b00010110010111001010111110000101 ;
0C
b00000011111110001101111110100100 c
b00010010011000111100111111100001 k
b00010110010111001010111110000101 -!
#61
1C
#62
b00000000000110101110101101110101 +
b00011001000111011001010011011000 3
b00011001001110001000000001001101 ;
0C
b00000000000110101110101101110101 c
b00011001000111011001010011011000 k
b00011001001110001000000001001101 -!
#63
1C
#64
b00010000001110011110111100000010 +
b00001001011001001111101001111010 3
b00011001100111101110100101111100 ;
0C
b00010000001110011110111100000010 c
b00001001011001001111101001111010 k
b00011001100111101110100101111100 -!
#65
1C
#66
b00000000110111001001110011010010 +
b00001000001001111100010100110001 3
b00001001000001000110001000000011 ;
0C
b00000000110111001001110011010010 c
b00001000001001111100010100110001 k
b00001001000001000110001000000011 -!
#67
1C
#68
b00011000111001100010110010001111 +
b00001111011110000101011111101001 3
b00101000010111101000010001111000 ;
0C
b00011000111001100010110010001111 c
b00001111011110000101011111101001 k
b00101000010111101000010001111000 -!
#69
1C
#70
b00010111010010101111000100100000 +
b00001110001010011110001101000010 3
b00100101011101001101010001100010 ;
0C
b00010111010010101111000100100000 c
b00001110001010011110001101000010 k
b00100101011101001101010001100010 -!
#71
1C
#72
b00010000011000101011100101010010 +
b00000010001010111000000111001011 3
b00010010100011100011101100011101 ;
0C
b00010000011000101011100101010010 c
b00000010001010111000000111001011 k
b00010010100011100011101100011101 -!
#73
1C
#74
b00010010101111000110100100110001 +
b00010001111110000001100001001010 3
b00100100101101001000000101111011 ;
0C
b00010010101111000110100100110001 c
b00010001111110000001100001001010 k
b00100100101101001000000101111011 -!
#75
1C
#76
b00001110010111000011010000001101 +
b00000000011110101110101010101101 3
b00001110110101110001111010111010 ;
0C
b00001110010111000011010000001101 c
b00000000011110101110101010101101 k
b00001110110101110001111010111010 -!
#77
1C
#78
b00000101010100011101011000010101 +
b00000100110000110100001100010011 3
b00001010000101010001100100101000 ;
0C
b00000101010100011101011000010101 c
b00000100110000110100001100010011 k
b00001010000101010001100100101000 -!
#79
1C
#80
b00000010111011000101010010110110 +
b00001110001110010001000010101111 3
b00010001001001010110010101100101 ;
0C
b00000010111011000101010010110110 c
b00001110001110010001000010101111 k
b00010001001001010110010101100101 -!
#81
1C
#82
b00011001100100000010011111111000 +
b00010010110011010110101010001100 3
b00101100010111011001001010000100 ;
0C
b00011001100100000010011111111000 c
b00010010110011010110101010001100 k
b00101100010111011001001010000100 -!
#83
1C
#84
b00010111000100000011011100111001 +
b00000011000001111100001001101000 3
b00011010000101111111100110100001 ;
0C
b00010111000100000011011100111001 c
b00000011000001111100001001101000 k
b00011010000101111111100110100001 -!
#85
1C
#86
b00010001110111011101001101010000 +
b00001111110110000010101100010010 3
b00100001101101011111111001100010 ;
0C
b00010001110111011101001101010000 c
b00001111110110000010101100010010 k
b00100001101101011111111001100010 -!
#87
1C
#88
b00000101111011010000111111011010 +
b00000111100011101001000101011000 3
b00001101011110111010000100110010 ;
0C
b00000101111011010000111111011010 c
b00000111100011101001000101011000 k
b00001101011110111010000100110010 -!
#89
1C
#90
b00010110110010001010000111100000 +
b00001010100111110010110000110111 3
b00100001011001111100111000010111 ;
0C
b00010110110010001010000111100000 c
b00001010100111110010110000110111 k
b00100001011001111100111000010111 -!
#91
1C
#92
b00001110101110100011100010001111 +
b00010110010110100100110010111111 3
b00100101000101001000010101001110 ;
0C
b00001110101110100011100010001111 c
b00010110010110100100110010111111 k
b00100101000101001000010101001110 -!
#93
1C
#94
b00000011000111010001101010110111 +
b00010011100011110101100101111001 3
b00010110101011000111010000110000 ;
0C
b00000011000111010001101010110111 c
b00010011100011110101100101111001 k
b00010110101011000111010000110000 -!
#95
1C
#96
b00000111011111110100000011101111 +
b00000101110111101001110010101101 3
b00001101010111011101110110011100 ;
0C
b00000111011111110100000011101111 c
b00000101110111101001110010101101 k
b00001101010111011101110110011100 -!
#97
1C
#98
b00001001011001001101001000010010 +
b00001101100001111001010111010110 3
b00010110111011000110011111101000 ;
0C
b00001001011001001101001000010010 c
b00001101100001111001010111010110 k
b00010110111011000110011111101000 -!
#99
1C
#100
b00000010110110001010111111110011 +
b00011000011010001011001000100011 3
b00011011010000010110001000010110 ;
0C
b00000010110110001010111111110011 c
b00011000011010001011001000100011 k
b00011011010000010110001000010110 -!
#101
1C
#102
b00000001100110001001111100100000 +
b00010111000010000110110000010010 3
b00011000101000010000101100110010 ;
0C
b00000001100110001001111100100000 c
b00010111000010000110110000010010 k
b00011000101000010000101100110010 -!
#103
1C
#104
b00000000010111111001010010110111 +
b00000010100001110110110100101010 3
b00000010111001110000000111100001 ;
0C
b00000000010111111001010010110111 c
b00000010100001110110110100101010 k
b00000010111001110000000111100001 -!
#105
1C
#106
b00010011001110111100101100111011 +
b00010011001001001110111001011001 3
b00100110011000001011100110010100 ;
0C
b00010011001110111100101100111011 c
b00010011001001001110111001011001 k
b00100110011000001011100110010100 -!
#107
1C
#108
b00010000100011001010110101101010 +
b00001010110101000100101101101010 3
b00011011011000001111100011010100 ;
0C
b00010000100011001010110101101010 c
b00001010110101000100101101101010 k
b00011011011000001111100011010100 -!
#109
1C
#110
b00011000110000011000001111111101 +
b00001110100110011111100111011001 3
b00100111010110110111110111010110 ;
0C
b00011000110000011000001111111101 c
b00001110100110011111100111011001 k
b00100111010110110111110111010110 -!
#111
1C
#112
b00011000110011110010001001011010 +
b00000000011100110111000100011011 3
b00011001010000101001001101110101 ;
0C
b00011000110011110010001001011010 c
b00000000011100110111000100011011 k
b00011001010000101001001101110101 -!
#113
1C
#114
b00011000011101111110010001100100 +
b00001100001011011010100011111110 3
b00100100101001011000110101100010 ;
0C
b00011000011101111110010001100100 c
b00001100001011011010100011111110 k
b00100100101001011000110101100010 -!
#115
1C
#116
b00010110011100100010110000010111 +
b00010001010101010011111011101100 3
b00100111110001110110101100000011 ;
0C
b00010110011100100010110000010111 c
b00010001010101010011111011101100 k
b00100111110001110110101100000011 -!
#117
1C
#118
b00001011000111001000101100101101 +
b00011001001011000110101001001110 3
b00100100010010001111010101111011 ;
0C
b00001011000111001000101100101101 c
b00011001001011000110101001001110 k
b00100100010010001111010101111011 -!
#119
1C
#120
b00000101000100100110100011010011 +
b00000111001010001100110000010110 3
b00001100001110110011010011101001 ;
0C
b00000101000100100110100011010011 c
b00000111001010001100110000010110 k
b00001100001110110011010011101001 -!
#121
1C
#122
b00001100010011101101000001100010 +
b00010101010110100000110010101111 3
b00100001101010001101110100010001 ;
0C
b00001100010011101101000001100010 c
b00010101010110100000110010101111 k
b00100001101010001101110100010001 -!
#123
1C
#124
b00010010010101011100001001001001 +
b00000100110001011101101011001110 3
b00010111000110111001110100010111 ;
0C
b00010010010101011100001001001001 c
b00000100110001011101101011001110 k
b00010111000110111001110100010111 -!
#125
1C
#126
b00000011011010001011111110011111 +
b00010001101110010011100001111101 3
b00010101001000011111100000011100 ;
0C
b00000011011010001011111110011111 c
b00010001101110010011100001111101 k
b00010101001000011111100000011100 -!
#127
1C
#128
b00010111000000000001101110011011 +
b00010110010011100101101000101010 3
b00101101010011100111010111000101 ;
0C
b00010111000000000001101110011011 c
b00010110010011100101101000101010 k
b00101101010011100111010111000101 -!
#129
1C
#130
b00010101001101000010001011011000 +
b00001011011100001101001100110110 3
b00100000101001001111011000001110 ;
0C
b00010101001101000010001011011000 c
b00001011011100001101001100110110 k
b00100000101001001111011000001110 -!
#131
1C
#132
b00001011000000110111011011101011 +
b00000001000110110100100011101101 3
b00001100000111101011111111011000 ;
0C
b00001011000000110111011011101011 c
b00000001000110110100100011101101 k
b00001100000111101011111111011000 -!
#133
1C
#134
b00001011100011011100111001011000 +
b00001001001101010001001100010000 3
b00010100110000101110000101101000 ;
0C
b00001011100011011100111001011000 c
b00001001001101010001001100010000 k
b00010100110000101110000101101000 -!
#135
1C
#136
b00010100110100011001001110100100 +
b00000110011011001100000000000000 3
b00011011001111100101001110100100 ;
0C
b00010100110100011001001110100100 c
b00000110011011001100000000000000 k
b00011011001111100101001110100100 -!
#137
1C
#138
b00010010011101010011101000001010 +
b00001010110010010100000101111101 3
b00011101001111100111101110000111 ;
0C
b00010010011101010011101000001010 c
b00001010110010010100000101111101 k
b00011101001111100111101110000111 -!
#139
1C
#140
b00011001010010110010001010101011 +
b00010101010010001000111000000011 3
b00101110100100111011000010101110 ;
0C
b00011001010010110010001010101011 c
b00010101010010001000111000000011 k
b00101110100100111011000010101110 -!
#141
1C
#142
b00010010111111101111001101101010 +
b00001011011010001000011001001010 3
b00011110011001110111100110110100 ;
0C
b00010010111111101111001101101010 c
b00001011011010001000011001001010 k
b00011110011001110111100110110100 -!
#143
1C
#144
b00001011000001110111010110000110 +
b00001010000110110111001011001101 3
b00010101001000101110100001010011 ;
0C
b00001011000001110111010110000110 c
b00001010000110110111001011001101 k
b00010101001000101110100001010011 -!
#145
1C
#146
b00000010111110000110110101011001 +
b00011001001001010110000110111011 3
b00011100000111011100111100010100 ;
0C
b00000010111110000110110101011001 c
b00011001001001010110000110111011 k
b00011100000111011100111100010100 -!
#147
1C
#148
b00001101100100010111000011011010 +
b00000010010100010100111010011000 3
b00001111111000101011111101110010 ;
0C
b00001101100100010111000011011010 c
b00000010010100010100111010011000 k
b00001111111000101011111101110010 -!
#149
1C
#150
b00010100110100011100000010100001 +
b00001000110000001011110010101100 3
b00011101100100100111110101001101 ;
0C
b00010100110100011100000010100001 c
b00001000110000001011110010101100 k
b00011101100100100111110101001101 -!
#151
1C
#152
b00010100010010001101100110110110 +
b00000111001101000001110010011110 3
b00011011011111001111011001010100 ;
0C
b00010100010010001101100110110110 c
b00000111001101000001110010011110 k
b00011011011111001111011001010100 -!
#153
1C
#154
b00000011000000001101100001001011 +
b00000000000010010010001100011101 3
b00000011000010011111101101101000 ;
0C
b00000011000000001101100001001011 c
b00000000000010010010001100011101 k
b00000011000010011111101101101000 -!
#155
1C
#156
b00010010010100000111100001100011 +
b00010111111100010011011110010100 3
b00101010010000011010111111110111 ;
0C
b00010010010100000111100001100011 c
b00010111111100010011011110010100 k
b00101010010000011010111111110111 -!
#157
1C
#158
b00010101001000110100111110010000 +
b00001110000100001001111111110110 3
b00100011001100111110111110000110 ;
0C
b00010101001000110100111110010000 c
b00001110000100001001111111110110 k
b00100011001100111110111110000110 -!
#159
1C
#160
b00000011110110000100111100101001 +
b00010111010111101000011111100111 3
b00011011001101101101011100010000 ;
0C
b00000011110110000100111100101001 c
b00010111010111101000011111100111 k
b00011011001101101101011100010000 -!
#161
1C
#162
b00001100001001011111011100011110 +
b00010101011101010111011001000100 3
b00100001100110110110110101100010 ;
0C
b00001100001001011111011100011110 c
b00010101011101010111011001000100 k
b00100001100110110110110101100010 -!
#163
1C
#164
b00010111011110111011001000110101 +
b00010010100011101101000000001011 3
b00101010000010101000001001000000 ;
0C
b00010111011110111011001000110101 c
b00010010100011101101000000001011 k
b00101010000010101000001001000000 -!
#165
1C
#166
b00000101001110010111011001010000 +
b00010111101111110011101100100101 3
b00011100111110001011000101110101 ;
0C
b00000101001110010111011001010000 c
b00010111101111110011101100100101 k
b00011100111110001011000101110101 -!
#167
1C
#168
b00000000110001111101101011010110 +
b00001001010110010000110110100110 3
b00001010001000001110100001111100 ;
0C
b00000000110001111101101011010110 c
b00001001010110010000110110100110 k
b00001010001000001110100001111100 -!
#169
1C
#170
b00010001001100111001110100000100 +
b00001110101001011000100111001010 3
b00011111110110010010011011001110 ;
0C
b00010001001100111001110100000100 c
b00001110101001011000100111001010 k
b00011111110110010010011011001110 -!
#171
1C
#172
b00011000100010001010110110111011 +
b00001001100001100101100111110100 3
b00100010000011110000011110101111 ;
0C
b00011000100010001010110110111011 c
b00001001100001100101100111110100 k
b00100010000011110000011110101111 -!
#173
1C
#174
b00010111100100100100110111101110 +
b00001110011111001011000111100101 3
b00100110000011101111111111010011 ;
0C
b00010111100100100100110111101110 c
b00001110011111001011000111100101 k
b00100110000011101111111111010011 -!
#175
1C
#176
b00010000111010000101010100110011 +
b00001010111001111101110010011111 3
b00011011110100000011000111010010 ;
0C
b00010000111010000101010100110011 c
b00001010111001111101110010011111 k
b00011011110100000011000111010010 -!
#177
1C
#178
b00001100010110000010001111111001 +
b00001101100100000001000111001110 3
b00011001111010000011010111000111 ;
0C
b00001100010110000010001111111001 c
b00001101100100000001000111001110 k
b00011001111010000011010111000111 -!
#179
1C
#180
b00001011011100100001000011110001 +
b00001111101101000110000001110001 3
b00011011001001100111000101100010 ;
0C
b00001011011100100001000011110001 c
b00001111101101000110000001110001 k
b00011011001001100111000101100010 -!
#181
1C
#182
b00011000101001010101100000100000 +
b00010110001011001001011101110000 3
b00101110110100011110111110010000 ;
0C
b00011000101001010101100000100000 c
b00010110001011001001011101110000 k
b00101110110100011110111110010000 -!
#183
1C
#184
b00001111011011011000100100001101 +
b00010001110010010001100101110111 3
b00100001001101101010001010000100 ;
0C
b00001111011011011000100100001101 c
b00010001110010010001100101110111 k
b00100001001101101010001010000100 -!
#185
1C
#186
b00001111100100011110111010100110 +
b00001100110111100110110100111000 3
b00011100011100000101101111011110 ;
0C
b00001111100100011110111010100110 c
b00001100110111100110110100111000 k
b00011100011100000101101111011110 -!
#187
1C
#188
b00000111001110001110010011010010 +
b00001110110011100010011111110001 3
b00010110000001110000110011000011 ;
0C
b00000111001110001110010011010010 c
b00001110110011100010011111110001 k
b00010110000001110000110011000011 -!
#189
1C
#190
b00001010101001110100000100000111 +
b00010000111001000111001110100101 3
b00011011100010111011010010101100 ;
0C
b00001010101001110100000100000111 c
b00010000111001000111001110100101 k
b00011011100010111011010010101100 -!
#191
1C
#192
b00010110111000110000111000111010 +
b00000010110101110001101111001101 3
b00011001101110100010101000000111 ;
0C
b00010110111000110000111000111010 c
b00000010110101110001101111001101 k
b00011001101110100010101000000111 -!
#193
1C
#194
b00001111010111010110001100011110 +
b00010001001110100100111101110111 3
b00100000100101111011001010010101 ;
0C
b00001111010111010110001100011110 c
b00010001001110100100111101110111 k
b00100000100101111011001010010101 -!
#195
1C
#196
b00000101101000000000101001010000 +
b00010001101010101011001010001010 3
b00010111010010101011110011011010 ;
0C
b00000101101000000000101001010000 c
b00010001101010101011001010001010 k
b00010111010010101011110011011010 -!
#197
1C
#198
b00001011010011101001101011010110 +
b00001101011011010101110000000000 3
b00011000101110111111011011010110 ;
0C
b00001011010011101001101011010110 c
b00001101011011010101110000000000 k
b00011000101110111111011011010110 -!
#199
1C
#200
b00010101110000010011100110110011 +
b00000111111111000111111111001111 3
b00011101101111011011100110000010 ;
0C
b00010101110000010011100110110011 c
b00000111111111000111111111001111 k
b00011101101111011011100110000010 -!
#201
1C
#202
b00001001010110001101111111000011 +
b00000111110110011110011111010001 3
b00010001001100101100011110010100 ;
0C
b00001001010110001101111111000011 c
b00000111110110011110011111010001 k
b00010001001100101100011110010100 -!
#203
1C
#204
b00000000000000000000000000000010 +
b00000000000000000000000000000010 3
b00000000000000000000000000000100 ;
0C
b00000000001000001000000101100011 S
b00000000000000000000000000000010 [
b00000000000000000000000000000010 s
1{
1%!
b00000000000000000000000000000100 -!
b00000000000000000000000000000100 =!
b1100011 E!
#205
1C
#206
0C
b00000000000000000000000000001001 c
b00000000000000000000000000001001 k
15!
#207
1C
#208
0C
b00000000000000000000000000010011 k
05!
