hw3/test_run_dir/Single_Cycle_CPU_should_FP32_Operations_by_Applying_FP32_to_Bfloat16_Conversion_Algorithm/TestTopModule.vcd
$version Generated by VerilatedVcd $end
$date Fri Dec  1 21:00:57 2023
 $end
$timescale   1ns $end

 $scope module TOP $end
  $var wire  1 _* clock $end
  $var wire 32 o* io_mem_debug_read_address [31:0] $end
  $var wire 32 )+ io_mem_debug_read_data [31:0] $end
  $var wire  5 w* io_regs_debug_read_address [4:0] $end
  $var wire 32 !+ io_regs_debug_read_data [31:0] $end
  $var wire  1 g* reset $end
  $scope module TestTopModule $end
   $var wire  2 S$ CPU_clkdiv [1:0] $end
   $var wire  1 _* clock $end
   $var wire  1 K$ cpu_clock $end
   $var wire  5 w* cpu_io_debug_read_address [4:0] $end
   $var wire 32 1+ cpu_io_debug_read_data [31:0] $end
   $var wire 32 ;$ cpu_io_instruction [31:0] $end
   $var wire 32 I' cpu_io_instruction_address [31:0] $end
   $var wire  1 O* cpu_io_instruction_valid $end
   $var wire 32 )# cpu_io_memory_bundle_address [31:0] $end
   $var wire 32 S cpu_io_memory_bundle_read_data [31:0] $end
   $var wire 32 ?" cpu_io_memory_bundle_write_data [31:0] $end
   $var wire  1 K cpu_io_memory_bundle_write_enable $end
   $var wire  1 G" cpu_io_memory_bundle_write_strobe_0 $end
   $var wire  1 O" cpu_io_memory_bundle_write_strobe_1 $end
   $var wire  1 W" cpu_io_memory_bundle_write_strobe_2 $end
   $var wire  1 _" cpu_io_memory_bundle_write_strobe_3 $end
   $var wire  1 g* cpu_reset $end
   $var wire  1 _* instruction_rom_clock $end
   $var wire 32 7* instruction_rom_io_address [31:0] $end
   $var wire 32 ; instruction_rom_io_data [31:0] $end
   $var wire 32 o* io_mem_debug_read_address [31:0] $end
   $var wire 32 )+ io_mem_debug_read_data [31:0] $end
   $var wire  5 w* io_regs_debug_read_address [4:0] $end
   $var wire 32 !+ io_regs_debug_read_data [31:0] $end
   $var wire  1 _* mem_clock $end
   $var wire 32 w" mem_io_bundle_address [31:0] $end
   $var wire 32 3$ mem_io_bundle_read_data [31:0] $end
   $var wire 32 !# mem_io_bundle_write_data [31:0] $end
   $var wire  1 3 mem_io_bundle_write_enable $end
   $var wire  1 }! mem_io_bundle_write_strobe_0 $end
   $var wire  1 '" mem_io_bundle_write_strobe_1 $end
   $var wire  1 /" mem_io_bundle_write_strobe_2 $end
   $var wire  1 7" mem_io_bundle_write_strobe_3 $end
   $var wire 32 o* mem_io_debug_read_address [31:0] $end
   $var wire 32 C$ mem_io_debug_read_data [31:0] $end
   $var wire 32 ;$ mem_io_instruction [31:0] $end
   $var wire 32 I' mem_io_instruction_address [31:0] $end
   $var wire  1 g* reset $end
   $var wire  1 _* rom_loader_clock $end
   $var wire 32 ?* rom_loader_io_bundle_address [31:0] $end
   $var wire 32 C rom_loader_io_bundle_write_data [31:0] $end
   $var wire  1 G* rom_loader_io_bundle_write_enable $end
   $var wire  1 G* rom_loader_io_bundle_write_strobe_0 $end
   $var wire  1 G* rom_loader_io_bundle_write_strobe_1 $end
   $var wire  1 G* rom_loader_io_bundle_write_strobe_2 $end
   $var wire  1 G* rom_loader_io_bundle_write_strobe_3 $end
   $var wire  1 O* rom_loader_io_load_finished $end
   $var wire 32 7* rom_loader_io_rom_address [31:0] $end
   $var wire 32 ; rom_loader_io_rom_data [31:0] $end
   $var wire  1 g* rom_loader_reset $end
   $scope module cpu $end
    $var wire  1 K$ clock $end
    $var wire  1 -! ex_io_aluop1_source $end
    $var wire  1 5! ex_io_aluop2_source $end
    $var wire 32 + ex_io_if_jump_address [31:0] $end
    $var wire  1 g" ex_io_if_jump_flag $end
    $var wire 32 %! ex_io_immediate [31:0] $end
    $var wire 32 { ex_io_instruction [31:0] $end
    $var wire 32 I' ex_io_instruction_address [31:0] $end
    $var wire 32 q# ex_io_mem_alu_result [31:0] $end
    $var wire 32 a# ex_io_reg1_data [31:0] $end
    $var wire 32 i# ex_io_reg2_data [31:0] $end
    $var wire  1 -! id_io_ex_aluop1_source $end
    $var wire  1 5! id_io_ex_aluop2_source $end
    $var wire 32 %! id_io_ex_immediate [31:0] $end
    $var wire 32 { id_io_instruction [31:0] $end
    $var wire  1 =! id_io_memory_read_enable $end
    $var wire  1 E! id_io_memory_write_enable $end
    $var wire  5 c id_io_reg_write_address [4:0] $end
    $var wire  1 [ id_io_reg_write_enable $end
    $var wire  5 k id_io_regs_reg1_read_address [4:0] $end
    $var wire  5 s id_io_regs_reg2_read_address [4:0] $end
    $var wire  2 M! id_io_wb_reg_write_source [1:0] $end
    $var wire  1 # inst_fetch_clock $end
    $var wire 32 { inst_fetch_io_instruction [31:0] $end
    $var wire 32 I' inst_fetch_io_instruction_address [31:0] $end
    $var wire 32 ;$ inst_fetch_io_instruction_read_data [31:0] $end
    $var wire  1 O* inst_fetch_io_instruction_valid $end
    $var wire 32 + inst_fetch_io_jump_address_id [31:0] $end
    $var wire  1 g" inst_fetch_io_jump_flag_id $end
    $var wire  1 g* inst_fetch_reset $end
    $var wire  5 w* io_debug_read_address [4:0] $end
    $var wire 32 1+ io_debug_read_data [31:0] $end
    $var wire 32 ;$ io_instruction [31:0] $end
    $var wire 32 I' io_instruction_address [31:0] $end
    $var wire  1 O* io_instruction_valid $end
    $var wire 32 )# io_memory_bundle_address [31:0] $end
    $var wire 32 S io_memory_bundle_read_data [31:0] $end
    $var wire 32 ?" io_memory_bundle_write_data [31:0] $end
    $var wire  1 K io_memory_bundle_write_enable $end
    $var wire  1 G" io_memory_bundle_write_strobe_0 $end
    $var wire  1 O" io_memory_bundle_write_strobe_1 $end
    $var wire  1 W" io_memory_bundle_write_strobe_2 $end
    $var wire  1 _" io_memory_bundle_write_strobe_3 $end
    $var wire 32 q# mem_io_alu_result [31:0] $end
    $var wire  3 U! mem_io_funct3 [2:0] $end
    $var wire 32 q# mem_io_memory_bundle_address [31:0] $end
    $var wire 32 S mem_io_memory_bundle_read_data [31:0] $end
    $var wire 32 ?" mem_io_memory_bundle_write_data [31:0] $end
    $var wire  1 K mem_io_memory_bundle_write_enable $end
    $var wire  1 G" mem_io_memory_bundle_write_strobe_0 $end
    $var wire  1 O" mem_io_memory_bundle_write_strobe_1 $end
    $var wire  1 W" mem_io_memory_bundle_write_strobe_2 $end
    $var wire  1 _" mem_io_memory_bundle_write_strobe_3 $end
    $var wire  1 =! mem_io_memory_read_enable $end
    $var wire  1 E! mem_io_memory_write_enable $end
    $var wire 32 i# mem_io_reg2_data [31:0] $end
    $var wire 32 o" mem_io_wb_memory_read_data [31:0] $end
    $var wire  1 # regs_clock $end
    $var wire  5 w* regs_io_debug_read_address [4:0] $end
    $var wire 32 1+ regs_io_debug_read_data [31:0] $end
    $var wire  5 k regs_io_read_address1 [4:0] $end
    $var wire  5 s regs_io_read_address2 [4:0] $end
    $var wire 32 a# regs_io_read_data1 [31:0] $end
    $var wire 32 i# regs_io_read_data2 [31:0] $end
    $var wire  5 c regs_io_write_address [4:0] $end
    $var wire 32 Y# regs_io_write_data [31:0] $end
    $var wire  1 [ regs_io_write_enable $end
    $var wire  1 g* regs_reset $end
    $var wire  1 g* reset $end
    $var wire 32 q# wb_io_alu_result [31:0] $end
    $var wire 32 I' wb_io_instruction_address [31:0] $end
    $var wire 32 o" wb_io_memory_read_data [31:0] $end
    $var wire 32 Y# wb_io_regs_write_data [31:0] $end
    $var wire  2 M! wb_io_regs_write_source [1:0] $end
    $scope module ex $end
     $var wire  4 m! alu_ctrl_io_alu_funct [3:0] $end
     $var wire  3 U! alu_ctrl_io_funct3 [2:0] $end
     $var wire  7 u! alu_ctrl_io_funct7 [6:0] $end
     $var wire  7 ]! alu_ctrl_io_opcode [6:0] $end
     $var wire  4 m! alu_io_func [3:0] $end
     $var wire 32 y# alu_io_op1 [31:0] $end
     $var wire 32 #$ alu_io_op2 [31:0] $end
     $var wire 32 q# alu_io_result [31:0] $end
     $var wire  3 U! funct3 [2:0] $end
     $var wire  1 -! io_aluop1_source $end
     $var wire  1 5! io_aluop2_source $end
     $var wire 32 + io_if_jump_address [31:0] $end
     $var wire  1 g" io_if_jump_flag $end
     $var wire 32 %! io_immediate [31:0] $end
     $var wire 32 { io_instruction [31:0] $end
     $var wire 32 I' io_instruction_address [31:0] $end
     $var wire 32 q# io_mem_alu_result [31:0] $end
     $var wire 32 a# io_reg1_data [31:0] $end
     $var wire 32 i# io_reg2_data [31:0] $end
     $var wire  7 ]! opcode [6:0] $end
     $scope module alu $end
      $var wire  4 m! io_func [3:0] $end
      $var wire 32 y# io_op1 [31:0] $end
      $var wire 32 #$ io_op2 [31:0] $end
      $var wire 32 q# io_result [31:0] $end
     $upscope $end
     $scope module alu_ctrl $end
      $var wire  4 m! io_alu_funct [3:0] $end
      $var wire  3 U! io_funct3 [2:0] $end
      $var wire  7 u! io_funct7 [6:0] $end
      $var wire  7 ]! io_opcode [6:0] $end
     $upscope $end
    $upscope $end
    $scope module id $end
     $var wire  1 -! io_ex_aluop1_source $end
     $var wire  1 5! io_ex_aluop2_source $end
     $var wire 32 %! io_ex_immediate [31:0] $end
     $var wire 32 { io_instruction [31:0] $end
     $var wire  1 =! io_memory_read_enable $end
     $var wire  1 E! io_memory_write_enable $end
     $var wire  5 c io_reg_write_address [4:0] $end
     $var wire  1 [ io_reg_write_enable $end
     $var wire  5 k io_regs_reg1_read_address [4:0] $end
     $var wire  5 s io_regs_reg2_read_address [4:0] $end
     $var wire  2 M! io_wb_reg_write_source [1:0] $end
     $var wire  7 ]! opcode [6:0] $end
     $var wire  5 c rd [4:0] $end
     $var wire  5 e! rs1 [4:0] $end
    $upscope $end
    $scope module inst_fetch $end
     $var wire  1 # clock $end
     $var wire 32 { io_instruction [31:0] $end
     $var wire 32 I' io_instruction_address [31:0] $end
     $var wire 32 ;$ io_instruction_read_data [31:0] $end
     $var wire  1 O* io_instruction_valid $end
     $var wire 32 + io_jump_address_id [31:0] $end
     $var wire  1 g" io_jump_flag_id $end
     $var wire 32 I' pc [31:0] $end
     $var wire  1 g* reset $end
    $upscope $end
    $scope module mem $end
     $var wire 32 q# io_alu_result [31:0] $end
     $var wire  3 U! io_funct3 [2:0] $end
     $var wire 32 q# io_memory_bundle_address [31:0] $end
     $var wire 32 S io_memory_bundle_read_data [31:0] $end
     $var wire 32 ?" io_memory_bundle_write_data [31:0] $end
     $var wire  1 K io_memory_bundle_write_enable $end
     $var wire  1 G" io_memory_bundle_write_strobe_0 $end
     $var wire  1 O" io_memory_bundle_write_strobe_1 $end
     $var wire  1 W" io_memory_bundle_write_strobe_2 $end
     $var wire  1 _" io_memory_bundle_write_strobe_3 $end
     $var wire  1 =! io_memory_read_enable $end
     $var wire  1 E! io_memory_write_enable $end
     $var wire 32 i# io_reg2_data [31:0] $end
     $var wire 32 o" io_wb_memory_read_data [31:0] $end
     $var wire  2 +$ mem_address_index [1:0] $end
    $upscope $end
    $scope module regs $end
     $var wire  1 # clock $end
     $var wire  5 w* io_debug_read_address [4:0] $end
     $var wire 32 1+ io_debug_read_data [31:0] $end
     $var wire  5 k io_read_address1 [4:0] $end
     $var wire  5 s io_read_address2 [4:0] $end
     $var wire 32 a# io_read_data1 [31:0] $end
     $var wire 32 i# io_read_data2 [31:0] $end
     $var wire  5 c io_write_address [4:0] $end
     $var wire 32 Y# io_write_data [31:0] $end
     $var wire  1 [ io_write_enable $end
     $var wire 32 Q' registers_0 [31:0] $end
     $var wire 32 Y' registers_1 [31:0] $end
     $var wire 32 C( registers_10 [31:0] $end
     $var wire 32 K( registers_11 [31:0] $end
     $var wire 32 S( registers_12 [31:0] $end
     $var wire 32 [( registers_13 [31:0] $end
     $var wire 32 c( registers_14 [31:0] $end
     $var wire 32 k( registers_15 [31:0] $end
     $var wire 32 s( registers_16 [31:0] $end
     $var wire 32 {( registers_17 [31:0] $end
     $var wire 32 %) registers_18 [31:0] $end
     $var wire 32 -) registers_19 [31:0] $end
     $var wire 32 a' registers_2 [31:0] $end
     $var wire 32 5) registers_20 [31:0] $end
     $var wire 32 =) registers_21 [31:0] $end
     $var wire 32 E) registers_22 [31:0] $end
     $var wire 32 M) registers_23 [31:0] $end
     $var wire 32 U) registers_24 [31:0] $end
     $var wire 32 ]) registers_25 [31:0] $end
     $var wire 32 e) registers_26 [31:0] $end
     $var wire 32 m) registers_27 [31:0] $end
     $var wire 32 u) registers_28 [31:0] $end
     $var wire 32 }) registers_29 [31:0] $end
     $var wire 32 i' registers_3 [31:0] $end
     $var wire 32 '* registers_30 [31:0] $end
     $var wire 32 /* registers_31 [31:0] $end
     $var wire 32 q' registers_4 [31:0] $end
     $var wire 32 y' registers_5 [31:0] $end
     $var wire 32 #( registers_6 [31:0] $end
     $var wire 32 +( registers_7 [31:0] $end
     $var wire 32 3( registers_8 [31:0] $end
     $var wire 32 ;( registers_9 [31:0] $end
     $var wire  1 g* reset $end
    $upscope $end
    $scope module wb $end
     $var wire 32 q# io_alu_result [31:0] $end
     $var wire 32 I' io_instruction_address [31:0] $end
     $var wire 32 o" io_memory_read_data [31:0] $end
     $var wire 32 Y# io_regs_write_data [31:0] $end
     $var wire  2 M! io_regs_write_source [1:0] $end
    $upscope $end
   $upscope $end
   $scope module instruction_rom $end
    $var wire  1 _* clock $end
    $var wire 32 A+ initvar [31:0] $end
    $var wire 32 7* io_address [31:0] $end
    $var wire 32 ; io_data [31:0] $end
    $var wire  6 W* mem_io_data_MPORT_addr [5:0] $end
    $var wire 32 ; mem_io_data_MPORT_data [31:0] $end
    $var wire  1 9+ mem_io_data_MPORT_en $end
   $upscope $end
   $scope module mem $end
    $var wire  1 _* clock $end
    $var wire 32 w" io_bundle_address [31:0] $end
    $var wire 32 3$ io_bundle_read_data [31:0] $end
    $var wire 16 !' io_bundle_read_data_hi [15:0] $end
    $var wire 16 w& io_bundle_read_data_lo [15:0] $end
    $var wire 32 !# io_bundle_write_data [31:0] $end
    $var wire  1 3 io_bundle_write_enable $end
    $var wire  1 }! io_bundle_write_strobe_0 $end
    $var wire  1 '" io_bundle_write_strobe_1 $end
    $var wire  1 /" io_bundle_write_strobe_2 $end
    $var wire  1 7" io_bundle_write_strobe_3 $end
    $var wire 32 o* io_debug_read_address [31:0] $end
    $var wire 32 C$ io_debug_read_data [31:0] $end
    $var wire 16 1' io_debug_read_data_hi [15:0] $end
    $var wire 16 )' io_debug_read_data_lo [15:0] $end
    $var wire 32 ;$ io_instruction [31:0] $end
    $var wire 32 I' io_instruction_address [31:0] $end
    $var wire 16 A' io_instruction_hi [15:0] $end
    $var wire 16 9' io_instruction_lo [15:0] $end
    $var wire 13 9# mem_0_MPORT_addr [12:0] $end
    $var wire  8 1# mem_0_MPORT_data [7:0] $end
    $var wire  1 3 mem_0_MPORT_en $end
    $var wire  1 }! mem_0_MPORT_mask $end
    $var wire 13 c$ mem_0_io_bundle_read_data_MPORT_addr [12:0] $end
    $var wire 13 c$ mem_0_io_bundle_read_data_MPORT_addr_pipe_0 [12:0] $end
    $var wire  8 k$ mem_0_io_bundle_read_data_MPORT_data [7:0] $end
    $var wire  1 [$ mem_0_io_bundle_read_data_MPORT_en $end
    $var wire  1 [$ mem_0_io_bundle_read_data_MPORT_en_pipe_0 $end
    $var wire 13 {$ mem_0_io_debug_read_data_MPORT_addr [12:0] $end
    $var wire 13 {$ mem_0_io_debug_read_data_MPORT_addr_pipe_0 [12:0] $end
    $var wire  8 %% mem_0_io_debug_read_data_MPORT_data [7:0] $end
    $var wire  1 s$ mem_0_io_debug_read_data_MPORT_en $end
    $var wire  1 s$ mem_0_io_debug_read_data_MPORT_en_pipe_0 $end
    $var wire 13 5% mem_0_io_instruction_MPORT_addr [12:0] $end
    $var wire 13 5% mem_0_io_instruction_MPORT_addr_pipe_0 [12:0] $end
    $var wire  8 =% mem_0_io_instruction_MPORT_data [7:0] $end
    $var wire  1 -% mem_0_io_instruction_MPORT_en $end
    $var wire  1 -% mem_0_io_instruction_MPORT_en_pipe_0 $end
    $var wire 13 9# mem_1_MPORT_addr [12:0] $end
    $var wire  8 A# mem_1_MPORT_data [7:0] $end
    $var wire  1 3 mem_1_MPORT_en $end
    $var wire  1 '" mem_1_MPORT_mask $end
    $var wire 13 c$ mem_1_io_bundle_read_data_MPORT_addr [12:0] $end
    $var wire 13 c$ mem_1_io_bundle_read_data_MPORT_addr_pipe_0 [12:0] $end
    $var wire  8 M% mem_1_io_bundle_read_data_MPORT_data [7:0] $end
    $var wire  1 E% mem_1_io_bundle_read_data_MPORT_en $end
    $var wire  1 E% mem_1_io_bundle_read_data_MPORT_en_pipe_0 $end
    $var wire 13 {$ mem_1_io_debug_read_data_MPORT_addr [12:0] $end
    $var wire 13 {$ mem_1_io_debug_read_data_MPORT_addr_pipe_0 [12:0] $end
    $var wire  8 ]% mem_1_io_debug_read_data_MPORT_data [7:0] $end
    $var wire  1 U% mem_1_io_debug_read_data_MPORT_en $end
    $var wire  1 U% mem_1_io_debug_read_data_MPORT_en_pipe_0 $end
    $var wire 13 5% mem_1_io_instruction_MPORT_addr [12:0] $end
    $var wire 13 5% mem_1_io_instruction_MPORT_addr_pipe_0 [12:0] $end
    $var wire  8 m% mem_1_io_instruction_MPORT_data [7:0] $end
    $var wire  1 e% mem_1_io_instruction_MPORT_en $end
    $var wire  1 e% mem_1_io_instruction_MPORT_en_pipe_0 $end
    $var wire 13 9# mem_2_MPORT_addr [12:0] $end
    $var wire  8 I# mem_2_MPORT_data [7:0] $end
    $var wire  1 3 mem_2_MPORT_en $end
    $var wire  1 /" mem_2_MPORT_mask $end
    $var wire 13 c$ mem_2_io_bundle_read_data_MPORT_addr [12:0] $end
    $var wire 13 c$ mem_2_io_bundle_read_data_MPORT_addr_pipe_0 [12:0] $end
    $var wire  8 }% mem_2_io_bundle_read_data_MPORT_data [7:0] $end
    $var wire  1 u% mem_2_io_bundle_read_data_MPORT_en $end
    $var wire  1 u% mem_2_io_bundle_read_data_MPORT_en_pipe_0 $end
    $var wire 13 {$ mem_2_io_debug_read_data_MPORT_addr [12:0] $end
    $var wire 13 {$ mem_2_io_debug_read_data_MPORT_addr_pipe_0 [12:0] $end
    $var wire  8 /& mem_2_io_debug_read_data_MPORT_data [7:0] $end
    $var wire  1 '& mem_2_io_debug_read_data_MPORT_en $end
    $var wire  1 '& mem_2_io_debug_read_data_MPORT_en_pipe_0 $end
    $var wire 13 5% mem_2_io_instruction_MPORT_addr [12:0] $end
    $var wire 13 5% mem_2_io_instruction_MPORT_addr_pipe_0 [12:0] $end
    $var wire  8 ?& mem_2_io_instruction_MPORT_data [7:0] $end
    $var wire  1 7& mem_2_io_instruction_MPORT_en $end
    $var wire  1 7& mem_2_io_instruction_MPORT_en_pipe_0 $end
    $var wire 13 9# mem_3_MPORT_addr [12:0] $end
    $var wire  8 Q# mem_3_MPORT_data [7:0] $end
    $var wire  1 3 mem_3_MPORT_en $end
    $var wire  1 7" mem_3_MPORT_mask $end
    $var wire 13 c$ mem_3_io_bundle_read_data_MPORT_addr [12:0] $end
    $var wire 13 c$ mem_3_io_bundle_read_data_MPORT_addr_pipe_0 [12:0] $end
    $var wire  8 O& mem_3_io_bundle_read_data_MPORT_data [7:0] $end
    $var wire  1 G& mem_3_io_bundle_read_data_MPORT_en $end
    $var wire  1 G& mem_3_io_bundle_read_data_MPORT_en_pipe_0 $end
    $var wire 13 {$ mem_3_io_debug_read_data_MPORT_addr [12:0] $end
    $var wire 13 {$ mem_3_io_debug_read_data_MPORT_addr_pipe_0 [12:0] $end
    $var wire  8 _& mem_3_io_debug_read_data_MPORT_data [7:0] $end
    $var wire  1 W& mem_3_io_debug_read_data_MPORT_en $end
    $var wire  1 W& mem_3_io_debug_read_data_MPORT_en_pipe_0 $end
    $var wire 13 5% mem_3_io_instruction_MPORT_addr [12:0] $end
    $var wire 13 5% mem_3_io_instruction_MPORT_addr_pipe_0 [12:0] $end
    $var wire  8 o& mem_3_io_instruction_MPORT_data [7:0] $end
    $var wire  1 g& mem_3_io_instruction_MPORT_en $end
    $var wire  1 g& mem_3_io_instruction_MPORT_en_pipe_0 $end
   $upscope $end
   $scope module rom_loader $end
    $var wire 32 7* address [31:0] $end
    $var wire  1 _* clock $end
    $var wire 32 ?* io_bundle_address [31:0] $end
    $var wire 32 C io_bundle_write_data [31:0] $end
    $var wire  1 G* io_bundle_write_enable $end
    $var wire  1 G* io_bundle_write_strobe_0 $end
    $var wire  1 G* io_bundle_write_strobe_1 $end
    $var wire  1 G* io_bundle_write_strobe_2 $end
    $var wire  1 G* io_bundle_write_strobe_3 $end
    $var wire  1 O* io_load_finished $end
    $var wire 32 7* io_rom_address [31:0] $end
    $var wire 32 ; io_rom_data [31:0] $end
    $var wire  1 g* reset $end
    $var wire  1 O* valid $end
   $upscope $end
  $upscope $end
 $upscope $end
$enddefinitions $end


#0
1#
b00000000000000000001000000000000 +
13
b00000000000000000000001010010111 ;
b00000000000000000000001010010111 C
0K
b00000000000000000000000000000000 S
1[
b00000 c
b00000 k
b00000 s
b00000000000000000000000000010011 {
b00000000000000000000000000000000 %!
0-!
15!
0=!
0E!
b00 M!
b000 U!
b0010011 ]!
b00000 e!
b0001 m!
b0000000 u!
1}!
1'"
1/"
17"
b00000000000000000000000000000000 ?"
0G"
0O"
0W"
0_"
0g"
b00000000000000000000000000000000 o"
b00000000000000000001000000000000 w"
b00000000000000000000001010010111 !#
b00000000000000000000000000000000 )#
b10010111 1#
b0010000000000 9#
b00000010 A#
b00000000 I#
b00000000 Q#
b00000000000000000000000000000000 Y#
b00000000000000000000000000000000 a#
b00000000000000000000000000000000 i#
b00000000000000000000000000000000 q#
b00000000000000000000000000000000 y#
b00000000000000000000000000000000 #$
b00 +$
b00000000000000000000000000000000 3$
b00000000000000000000000000000000 ;$
b00000000000000000000000000000000 C$
1K$
b00 S$
0[$
b0000000000000 c$
b00000000 k$
0s$
b0000000000000 {$
b00000000 %%
0-%
b0000000000000 5%
b00000000 =%
0E%
b00000000 M%
0U%
b00000000 ]%
0e%
b00000000 m%
0u%
b00000000 }%
0'&
b00000000 /&
07&
b00000000 ?&
0G&
b00000000 O&
0W&
b00000000 _&
0g&
b00000000 o&
b0000000000000000 w&
b0000000000000000 !'
b0000000000000000 )'
b0000000000000000 1'
b0000000000000000 9'
b0000000000000000 A'
b00000000000000000001000000000000 I'
b00000000000000000000000000000000 Q'
b00000000000000000000000000000000 Y'
b00000000000000000000000000000000 a'
b00000000000000000000000000000000 i'
b00000000000000000000000000000000 q'
b00000000000000000000000000000000 y'
b00000000000000000000000000000000 #(
b00000000000000000000000000000000 +(
b00000000000000000000000000000000 3(
b00000000000000000000000000000000 ;(
b00000000000000000000000000000000 C(
b00000000000000000000000000000000 K(
b00000000000000000000000000000000 S(
b00000000000000000000000000000000 [(
b00000000000000000000000000000000 c(
b00000000000000000000000000000000 k(
b00000000000000000000000000000000 s(
b00000000000000000000000000000000 {(
b00000000000000000000000000000000 %)
b00000000000000000000000000000000 -)
b00000000000000000000000000000000 5)
b00000000000000000000000000000000 =)
b00000000000000000000000000000000 E)
b00000000000000000000000000000000 M)
b00000000000000000000000000000000 U)
b00000000000000000000000000000000 ])
b00000000000000000000000000000000 e)
b00000000000000000000000000000000 m)
b00000000000000000000000000000000 u)
b00000000000000000000000000000000 })
b00000000000000000000000000000000 '*
b00000000000000000000000000000000 /*
b00000000000000000000000000000000 7*
b00000000000000000001000000000000 ?*
1G*
0O*
b000000 W*
0_*
1g*
b00000000000000000000000000000000 o*
b00000 w*
b00000000000000000000000000000000 !+
b00000000000000000000000000000000 )+
b00000000000000000000000000000000 1+
19+
b00000000000000000000000000000000 A+
#1
b00000000000000000000001010010111 3$
b00000000000000000000001010010111 ;$
1[$
b0010000000000 c$
b10010111 k$
1s$
1-%
b0010000000000 5%
b10010111 =%
1E%
b00000010 M%
1U%
1e%
b00000010 m%
1u%
1'&
17&
1G&
1W&
1g&
b0000001010010111 w&
b0000001010010111 9'
1_*
#2
0_*
0g*
#3
0#
b00001010010000101010001010000011 ;
b00001010010000101010001010000011 C
b00000000000000000001000000000100 w"
b00001010010000101010001010000011 !#
b10000011 1#
b0010000000001 9#
b10100010 A#
b01000010 I#
b00001010 Q#
0K$
b01 S$
b00000000000000000000000000000001 7*
b00000000000000000001000000000100 ?*
b000001 W*
1_*
#4
0_*
#5
b00000000000100000000111100010011 ;
b00000000000100000000111100010011 C
b00000000000000000001000000001000 w"
b00000000000100000000111100010011 !#
b00010011 1#
b0010000000010 9#
b00001111 A#
b00010000 I#
b00000000 Q#
b00001010010000101010001010000011 3$
b10 S$
b0010000000001 c$
b10000011 k$
b10100010 M%
b01000010 }%
b00001010 O&
b1010001010000011 w&
b0000101001000010 !'
b00000000000000000000000000000010 7*
b00000000000000000001000000001000 ?*
b000010 W*
1_*
#6
0_*
#7
b00000000000000000000010100010111 ;
b00000000000000000000010100010111 C
b00000000000000000001000000001100 w"
b00000000000000000000010100010111 !#
b00010111 1#
b0010000000011 9#
b00000101 A#
b00000000 I#
b00000000000100000000111100010011 3$
b11 S$
b0010000000010 c$
b00010011 k$
b00001111 M%
b00010000 }%
b00000000 O&
b0000111100010011 w&
b0000000000010000 !'
b00000000000000000000000000000011 7*
b00000000000000000001000000001100 ?*
b000011 W*
1_*
#8
0_*
#9
1#
b00001010000001010010010100000011 ;
b00001010000001010010010100000011 C
b00000000000000000001000000010000 w"
b00001010000001010010010100000011 !#
b00000011 1#
b0010000000100 9#
b00100101 A#
b00000101 I#
b00001010 Q#
b00000000000000000000010100010111 3$
1K$
b00 S$
b0010000000011 c$
b00010111 k$
b00000101 M%
b00000000 }%
b0000010100010111 w&
b0000000000000000 !'
b00000000000000000000000000000100 7*
b00000000000000000001000000010000 ?*
b000100 W*
1_*
#10
0_*
#11
0#
b00000000000000000000010110010111 ;
b00000000000000000000010110010111 C
b00000000000000000001000000010100 w"
b00000000000000000000010110010111 !#
b10010111 1#
b0010000000101 9#
b00000101 A#
b00000000 I#
b00000000 Q#
b00001010000001010010010100000011 3$
0K$
b01 S$
b0010000000100 c$
b00000011 k$
b00100101 M%
b00000101 }%
b00001010 O&
b0010010100000011 w&
b0000101000000101 !'
b00000000000000000000000000000101 7*
b00000000000000000001000000010100 ?*
b000101 W*
1_*
#12
0_*
#13
b00001001110001011010010110000011 ;
b00001001110001011010010110000011 C
b00000000000000000001000000011000 w"
b00001001110001011010010110000011 !#
b10000011 1#
b0010000000110 9#
b10100101 A#
b11000101 I#
b00001001 Q#
b00000000000000000000010110010111 3$
b10 S$
b0010000000101 c$
b10010111 k$
b00000101 M%
b00000000 }%
b00000000 O&
b0000010110010111 w&
b0000000000000000 !'
b00000000000000000000000000000110 7*
b00000000000000000001000000011000 ?*
b000110 W*
1_*
#14
0_*
#15
b00000000101000101111001100110011 ;
b00000000101000101111001100110011 C
b00000000000000000001000000011100 w"
b00000000101000101111001100110011 !#
b00110011 1#
b0010000000111 9#
b11110011 A#
b10100010 I#
b00000000 Q#
b00001001110001011010010110000011 3$
b11 S$
b0010000000110 c$
b10000011 k$
b10100101 M%
b11000101 }%
b00001001 O&
b1010010110000011 w&
b0000100111000101 !'
b00000000000000000000000000000111 7*
b00000000000000000001000000011100 ?*
b000111 W*
1_*
#16
0_*
#17
1#
b00000000101100101111001110110011 ;
b00000000101100101111001110110011 C
b00000000000000000001000000100000 w"
b00000000101100101111001110110011 !#
b10110011 1#
b0010000001000 9#
b10110010 I#
b00000000101000101111001100110011 3$
1K$
b00 S$
b0010000000111 c$
b00110011 k$
b11110011 M%
b10100010 }%
b00000000 O&
b1111001100110011 w&
b0000000010100010 !'
b00000000000000000000000000001000 7*
b00000000000000000001000000100000 ?*
b001000 W*
1_*
#18
0_*
#19
0#
b00000100000000110000001001100011 ;
b00000100000000110000001001100011 C
b00000000000000000001000000100100 w"
b00000100000000110000001001100011 !#
b01100011 1#
b0010000001001 9#
b00000010 A#
b00000011 I#
b00000100 Q#
b00000000101100101111001110110011 3$
0K$
b01 S$
b0010000001000 c$
b10110011 k$
b10110010 }%
b1111001110110011 w&
b0000000010110010 !'
b00000000000000000000000000001001 7*
b00000000000000000001000000100100 ?*
b001001 W*
1_*
#20
0_*
#21
b00000100000000111000000001100011 ;
b00000100000000111000000001100011 C
b00000000000000000001000000101000 w"
b00000100000000111000000001100011 !#
b0010000001010 9#
b10000000 A#
b00000100000000110000001001100011 3$
b10 S$
b0010000001001 c$
b01100011 k$
b00000010 M%
b00000011 }%
b00000100 O&
b0000001001100011 w&
b0000010000000011 !'
b00000000000000000000000000001010 7*
b00000000000000000001000000101000 ?*
b001010 W*
1_*
#22
0_*
#23
b01111111100000000000010100110111 ;
b01111111100000000000010100110111 C
b00000000000000000001000000101100 w"
b01111111100000000000010100110111 !#
b00110111 1#
b0010000001011 9#
b00000101 A#
b10000000 I#
b01111111 Q#
b00000100000000111000000001100011 3$
b11 S$
b0010000001010 c$
b10000000 M%
b1000000001100011 w&
b00000000000000000000000000001011 7*
b00000000000000000001000000101100 ?*
b001011 W*
1_*
#24
0_*
#25
1#
b00000100101000110000001001100011 ;
b00000100101000110000001001100011 C
b00000000000000000001000000110000 w"
b00000100101000110000001001100011 !#
b01100011 1#
b0010000001100 9#
b00000010 A#
b10100011 I#
b00000100 Q#
b01111111100000000000010100110111 3$
1K$
b00 S$
b0010000001011 c$
b00110111 k$
b00000101 M%
b10000000 }%
b01111111 O&
b0000010100110111 w&
b0111111110000000 !'
b00000000000000000000000000001100 7*
b00000000000000000001000000110000 ?*
b001100 W*
1_*
#26
0_*
